,Age,Fare,Embarked_C,Embarked_Q,Embarked_S,Pclass_1,Pclass_2,Pclass_3,PassengerId,Survived,Sex,SibSp,Parch
0,-0.5776314595933767,-0.5024451714361923,0.0,0.0,1.0,0.0,0.0,1.0,1.0,0.0,1.0,1.0,0.0
1,0.6355104820525699,0.7868452935884461,1.0,0.0,0.0,1.0,0.0,0.0,2.0,1.0,0.0,1.0,0.0
2,-0.27434597418189005,-0.4888542575852486,0.0,0.0,1.0,0.0,0.0,1.0,3.0,1.0,0.0,0.0,0.0
3,0.4080463679939549,0.4207302360686478,0.0,0.0,1.0,1.0,0.0,0.0,4.0,1.0,0.0,1.0,0.0
4,0.4080463679939549,-0.4863374216869257,0.0,0.0,1.0,0.0,0.0,1.0,5.0,0.0,1.0,0.0,0.0
5,-0.49862559064368434,-0.47811642890864375,0.0,1.0,0.0,0.0,0.0,1.0,6.0,0.0,1.0,0.0,0.0
6,1.8486524236985165,0.395813560675251,0.0,0.0,1.0,1.0,0.0,0.0,7.0,0.0,1.0,0.0,0.0
7,-2.09405888665081,-0.22408312108167944,0.0,0.0,1.0,0.0,0.0,1.0,8.0,0.0,1.0,3.0,1.0
8,-0.1985246028290184,-0.4242561406845337,0.0,0.0,1.0,0.0,0.0,1.0,9.0,1.0,0.0,0.0,2.0
9,-1.18420243041635,-0.04295550208861426,1.0,0.0,0.0,0.0,1.0,0.0,10.0,1.0,0.0,1.0,0.0
10,-1.9424161439450667,-0.312172377522981,0.0,0.0,1.0,0.0,0.0,1.0,11.0,1.0,0.0,1.0,1.0
11,2.151937909110003,-0.11384570873513637,0.0,0.0,1.0,1.0,0.0,0.0,12.0,1.0,0.0,0.0,0.0
12,-0.7292742022991201,-0.4863374216869257,0.0,0.0,1.0,0.0,0.0,1.0,13.0,0.0,1.0,0.0,0.0
13,0.7113318534054416,-0.01870931177853076,0.0,0.0,1.0,0.0,0.0,1.0,14.0,0.0,1.0,1.0,5.0
14,-1.18420243041635,-0.4902797934380587,0.0,0.0,1.0,0.0,0.0,1.0,15.0,0.0,0.0,0.0,0.0
15,1.9244737950513882,-0.3262666585535892,0.0,0.0,1.0,0.0,1.0,0.0,16.0,1.0,0.0,0.0,0.0
16,-2.09405888665081,-0.06199888922968463,0.0,1.0,0.0,0.0,0.0,1.0,17.0,0.0,1.0,4.0,1.0
17,0.07443233404131967,-0.3866707201133388,0.0,0.0,1.0,0.0,1.0,0.0,18.0,1.0,1.0,0.0,0.0
18,0.10476088258246824,-0.2859972841804228,0.0,0.0,1.0,0.0,0.0,1.0,19.0,0.0,0.0,1.0,0.0
19,-0.293301317020108,-0.5029485386158568,1.0,0.0,0.0,0.0,0.0,1.0,20.0,1.0,0.0,0.0,0.0
20,0.4080463679939549,-0.12491978668775715,0.0,0.0,1.0,0.0,1.0,0.0,21.0,0.0,1.0,0.0,0.0
21,0.33222499664108324,-0.3866707201133388,0.0,0.0,1.0,0.0,1.0,0.0,22.0,1.0,1.0,0.0,0.0
22,-1.1083810590634784,-0.4867562231804066,0.0,1.0,0.0,0.0,0.0,1.0,23.0,1.0,0.0,0.0,0.0
23,-0.12270323147614676,0.06635974158478332,0.0,0.0,1.0,1.0,0.0,0.0,24.0,1.0,1.0,0.0,0.0
24,-1.63913065853358,-0.22408312108167944,0.0,0.0,1.0,0.0,0.0,1.0,25.0,0.0,0.0,3.0,1.0
25,0.6355104820525699,-0.016444159470040135,0.0,0.0,1.0,0.0,0.0,1.0,26.0,1.0,0.0,1.0,5.0
26,-0.293301317020108,-0.5029485386158568,1.0,0.0,0.0,0.0,0.0,1.0,27.0,0.0,1.0,0.0,0.0
27,-0.8050955736519917,4.647001076532463,0.0,0.0,1.0,1.0,0.0,0.0,28.0,0.0,1.0,3.0,2.0
28,0.18816439107062718,-0.48977642625839407,0.0,1.0,0.0,0.0,0.0,1.0,29.0,1.0,0.0,0.0,0.0
29,-0.22885315137016696,-0.4894421904510968,0.0,0.0,1.0,0.0,0.0,1.0,30.0,0.0,1.0,0.0,0.0
30,0.7871532247583132,-0.09027201697708476,1.0,0.0,0.0,1.0,0.0,0.0,31.0,0.0,1.0,0.0,0.0
31,0.04349721452934795,2.301728820789,1.0,0.0,0.0,1.0,0.0,0.0,32.0,1.0,0.0,1.0,0.0
32,0.006193099823735021,-0.49237782784290063,0.0,1.0,0.0,0.0,0.0,1.0,33.0,1.0,0.0,0.0,0.0
33,2.7585088799329767,-0.43700743807979686,0.0,0.0,1.0,0.0,1.0,0.0,34.0,0.0,1.0,0.0,0.0
34,-0.12270323147614676,1.0060617003323709,1.0,0.0,0.0,1.0,0.0,0.0,35.0,0.0,1.0,1.0,0.0
35,0.9387959674640565,0.39858208016340624,0.0,0.0,1.0,1.0,0.0,0.0,36.0,0.0,1.0,1.0,0.0
36,-0.31604772842596957,-0.5028639729296732,1.0,0.0,0.0,0.0,0.0,1.0,37.0,1.0,1.0,0.0,0.0
37,-0.6534528309462484,-0.4863374216869257,0.0,0.0,1.0,0.0,0.0,1.0,38.0,0.0,1.0,0.0,0.0
38,-0.8809169450048634,-0.2859972841804228,0.0,0.0,1.0,0.0,0.0,1.0,39.0,0.0,0.0,2.0,0.0
39,-1.18420243041635,-0.42207354059350805,1.0,0.0,0.0,0.0,0.0,1.0,40.0,1.0,0.0,1.0,0.0
40,0.7871532247583132,-0.4576454924460446,0.0,0.0,1.0,0.0,0.0,1.0,41.0,0.0,0.0,1.0,0.0
41,-0.1985246028290184,-0.22559322262067316,0.0,0.0,1.0,0.0,1.0,0.0,42.0,0.0,0.0,1.0,0.0
42,-0.22885315137016696,-0.4894421904510968,1.0,0.0,0.0,0.0,0.0,1.0,43.0,0.0,1.0,0.0,0.0
43,-2.018237515297938,0.18876253192945994,1.0,0.0,0.0,0.0,1.0,0.0,44.0,1.0,0.0,1.0,2.0
44,-0.8050955736519917,-0.48977642625839407,0.0,1.0,0.0,0.0,0.0,1.0,45.0,1.0,0.0,0.0,0.0
45,-0.10753895720557247,-0.4863374216869257,0.0,0.0,1.0,0.0,0.0,1.0,46.0,0.0,1.0,0.0,0.0
46,-0.2515995627760285,-0.3363340021468808,0.0,1.0,0.0,0.0,0.0,1.0,47.0,0.0,1.0,1.0,0.0
47,0.006193099823735021,-0.49237782784290063,0.0,1.0,0.0,0.0,0.0,1.0,48.0,1.0,0.0,0.0,0.0
48,-0.7216920651638328,-0.21191774308354583,1.0,0.0,0.0,0.0,0.0,1.0,49.0,0.0,1.0,2.0,0.0
49,-0.8809169450048634,-0.29002422161773944,0.0,0.0,1.0,0.0,0.0,1.0,50.0,0.0,0.0,1.0,0.0
50,-1.7149520298864516,0.1506737441786005,0.0,0.0,1.0,0.0,0.0,1.0,51.0,0.0,1.0,4.0,1.0
51,-0.6534528309462484,-0.4913710934835715,0.0,0.0,1.0,0.0,0.0,1.0,52.0,0.0,1.0,0.0,0.0
52,1.4695455669341582,0.8964967865378598,1.0,0.0,0.0,1.0,0.0,0.0,53.0,1.0,0.0,1.0,0.0
53,-0.04688186012327509,-0.12491978668775715,0.0,0.0,1.0,0.0,1.0,0.0,54.0,1.0,0.0,1.0,0.0
54,2.682687508580105,0.5995101505357573,1.0,0.0,0.0,1.0,0.0,0.0,55.0,0.0,1.0,0.0,1.0
55,0.18816439107062718,0.06635974158478332,0.0,0.0,1.0,1.0,0.0,0.0,56.0,1.0,1.0,0.0,0.0
56,-0.6534528309462484,-0.43700743807979686,0.0,0.0,1.0,0.0,1.0,0.0,57.0,1.0,0.0,0.0,0.0
57,-0.08479254579971092,-0.5028639729296732,1.0,0.0,0.0,0.0,0.0,1.0,58.0,0.0,1.0,0.0,0.0
58,-1.866594772592195,-0.08968408411123653,0.0,0.0,1.0,0.0,1.0,0.0,59.0,1.0,0.0,1.0,2.0
59,-1.411666544474965,0.2958951755118318,0.0,0.0,1.0,0.0,0.0,1.0,60.0,0.0,1.0,5.0,2.0
60,-0.5776314595933767,-0.5028639729296732,1.0,0.0,0.0,0.0,0.0,1.0,61.0,0.0,1.0,0.0,0.0
61,0.6355104820525699,0.962353321387736,0.0,0.0,1.0,1.0,0.0,0.0,62.0,1.0,0.0,0.0,0.0
62,1.1662600815226716,1.0323213593611125,0.0,0.0,1.0,1.0,0.0,0.0,63.0,0.0,1.0,1.0,0.0
63,-1.9424161439450667,-0.08666388103324908,0.0,0.0,1.0,0.0,0.0,1.0,64.0,0.0,1.0,3.0,2.0
64,0.11992515685304252,-0.09027201697708476,1.0,0.0,0.0,1.0,0.0,0.0,65.0,0.0,1.0,0.0,0.0
65,-0.1454496428820083,-0.3414522396297103,1.0,0.0,0.0,0.0,0.0,1.0,66.0,1.0,1.0,1.0,1.0
66,-0.04688186012327509,-0.43700743807979686,0.0,0.0,1.0,0.0,1.0,0.0,67.0,1.0,0.0,0.0,0.0
67,-0.8050955736519917,-0.4841568350646187,0.0,0.0,1.0,0.0,0.0,1.0,68.0,0.0,1.0,0.0,0.0
68,-0.956738316357735,-0.4888542575852486,0.0,0.0,1.0,0.0,0.0,1.0,69.0,1.0,0.0,4.0,2.0
69,-0.27434597418189005,-0.47400492578514347,0.0,0.0,1.0,0.0,0.0,1.0,70.0,0.0,1.0,2.0,0.0
70,0.1805822539353399,-0.43700743807979686,0.0,0.0,1.0,0.0,1.0,0.0,71.0,0.0,1.0,0.0,0.0
71,-1.0325596877106067,0.2958951755118318,0.0,0.0,1.0,0.0,0.0,1.0,72.0,0.0,0.0,5.0,2.0
72,-0.6534528309462484,0.8314778546749452,0.0,0.0,1.0,0.0,1.0,0.0,73.0,0.0,1.0,0.0,0.0
73,-0.27434597418189005,-0.3573908580066095,1.0,0.0,0.0,0.0,0.0,1.0,74.0,0.0,1.0,1.0,0.0
74,0.1805822539353399,0.48910360681684706,0.0,0.0,1.0,0.0,0.0,1.0,75.0,1.0,1.0,0.0,0.0
75,-0.35016734553476175,-0.494391296561559,0.0,0.0,1.0,0.0,0.0,1.0,76.0,0.0,1.0,0.0,0.0
76,-0.22885315137016696,-0.4894421904510968,0.0,0.0,1.0,0.0,0.0,1.0,77.0,0.0,1.0,0.0,0.0
77,-0.10753895720557247,-0.4863374216869257,0.0,0.0,1.0,0.0,0.0,1.0,78.0,0.0,1.0,0.0,0.0
78,-2.18276989113367,-0.06451572512800753,0.0,0.0,1.0,0.0,1.0,0.0,79.0,1.0,1.0,0.0,2.0
79,0.028939511229596572,-0.397241430886295,0.0,0.0,1.0,0.0,0.0,1.0,80.0,1.0,0.0,0.0,0.0
80,-0.5776314595933767,-0.46720946885967163,0.0,0.0,1.0,0.0,0.0,1.0,81.0,0.0,1.0,0.0,0.0
81,-0.04688186012327509,-0.45714212526638004,0.0,0.0,1.0,0.0,0.0,1.0,82.0,1.0,1.0,0.0,0.0
82,-0.3425852083994745,-0.49162277707340374,0.0,1.0,0.0,0.0,0.0,1.0,83.0,1.0,0.0,0.0,0.0
83,-0.12270323147614676,0.29992211294914856,0.0,0.0,1.0,1.0,0.0,0.0,84.0,0.0,1.0,0.0,0.0
84,-0.956738316357735,-0.43700743807979686,0.0,0.0,1.0,0.0,1.0,0.0,85.0,1.0,0.0,0.0,0.0
85,0.25640362528821153,-0.32928686163157667,0.0,0.0,1.0,0.0,0.0,1.0,86.0,1.0,0.0,3.0,0.0
86,-1.0325596877106067,0.04370821849987721,0.0,0.0,1.0,0.0,0.0,1.0,87.0,0.0,1.0,1.0,3.0
87,-0.10753895720557247,-0.4863374216869257,0.0,0.0,1.0,0.0,0.0,1.0,88.0,0.0,1.0,0.0,0.0
88,-0.5018100882405051,4.647001076532463,0.0,0.0,1.0,1.0,0.0,0.0,89.0,1.0,0.0,3.0,2.0
89,-0.4259887168876334,-0.4863374216869257,0.0,0.0,1.0,0.0,0.0,1.0,90.0,0.0,1.0,0.0,0.0
90,-0.04688186012327509,-0.4863374216869257,0.0,0.0,1.0,0.0,0.0,1.0,91.0,0.0,1.0,0.0,0.0
91,-0.7292742022991201,-0.4902797934380587,0.0,0.0,1.0,0.0,0.0,1.0,92.0,0.0,1.0,0.0,0.0
92,1.2420814528755433,0.5833178351003071,0.0,0.0,1.0,1.0,0.0,0.0,93.0,0.0,1.0,1.0,0.0
93,-0.27434597418189005,-0.23415046467497105,0.0,0.0,1.0,0.0,0.0,1.0,94.0,0.0,1.0,1.0,2.0
94,2.227759280462875,-0.5024451714361923,0.0,0.0,1.0,0.0,0.0,1.0,95.0,0.0,1.0,0.0,0.0
95,-0.10753895720557247,-0.4863374216869257,0.0,0.0,1.0,0.0,0.0,1.0,96.0,0.0,1.0,0.0,0.0
96,3.137615736697335,0.0493298231623713,1.0,0.0,0.0,1.0,0.0,0.0,97.0,0.0,1.0,0.0,0.0
97,-0.5018100882405051,0.6272778976347743,1.0,0.0,0.0,1.0,0.0,0.0,98.0,1.0,1.0,0.0,1.0
98,0.33222499664108324,-0.18532384824750675,0.0,0.0,1.0,0.0,1.0,0.0,99.0,1.0,0.0,0.0,1.0
99,0.33222499664108324,-0.12491978668775715,0.0,0.0,1.0,0.0,1.0,0.0,100.0,0.0,1.0,1.0,0.0
100,-0.12270323147614676,-0.4894421904510968,0.0,0.0,1.0,0.0,0.0,1.0,101.0,0.0,0.0,0.0,0.0
101,-0.22885315137016696,-0.4894421904510968,0.0,0.0,1.0,0.0,0.0,1.0,102.0,0.0,1.0,0.0,0.0
102,-0.6534528309462484,0.907737982394129,0.0,0.0,1.0,1.0,0.0,0.0,103.0,0.0,1.0,0.0,1.0
103,0.25640362528821153,-0.4741720436887921,0.0,0.0,1.0,0.0,0.0,1.0,104.0,0.0,1.0,0.0,0.0
104,0.5596891106996982,-0.4888542575852486,0.0,0.0,1.0,0.0,0.0,1.0,105.0,0.0,1.0,2.0,0.0
105,-0.12270323147614676,-0.4894421904510968,0.0,0.0,1.0,0.0,0.0,1.0,106.0,0.0,1.0,0.0,0.0
106,-0.6534528309462484,-0.494391296561559,0.0,0.0,1.0,0.0,0.0,1.0,107.0,1.0,0.0,0.0,0.0
107,-0.4866458139699308,-0.4918744606632361,0.0,0.0,1.0,0.0,0.0,1.0,108.0,1.0,1.0,0.0,0.0
108,0.6355104820525699,-0.4894421904510968,0.0,0.0,1.0,0.0,0.0,1.0,109.0,0.0,1.0,0.0,0.0
109,-0.17577819142315687,-0.1621689579829361,0.0,1.0,0.0,0.0,0.0,1.0,110.0,1.0,0.0,1.0,0.0
110,1.3179028242284148,0.39858208016340624,0.0,0.0,1.0,1.0,0.0,0.0,111.0,0.0,1.0,0.0,0.0
111,-1.1462917447399141,-0.3573908580066095,1.0,0.0,0.0,0.0,0.0,1.0,112.0,0.0,0.0,1.0,0.0
112,-0.5776314595933767,-0.4863374216869257,0.0,0.0,1.0,0.0,0.0,1.0,113.0,0.0,1.0,0.0,0.0
113,-0.7292742022991201,-0.4505983519307405,0.0,0.0,1.0,0.0,0.0,1.0,114.0,0.0,0.0,1.0,0.0
114,-0.956738316357735,-0.3573083057891445,1.0,0.0,0.0,0.0,0.0,1.0,115.0,0.0,0.0,0.0,0.0
115,-0.6534528309462484,-0.4888542575852486,0.0,0.0,1.0,0.0,0.0,1.0,116.0,0.0,1.0,0.0,0.0
116,3.099705051020899,-0.49237782784290063,0.0,1.0,0.0,0.0,0.0,1.0,117.0,0.0,1.0,0.0,0.0
117,-0.04688186012327509,-0.22559322262067316,0.0,0.0,1.0,0.0,1.0,0.0,118.0,0.0,1.0,1.0,0.0
118,-0.4259887168876334,4.335332226633905,1.0,0.0,0.0,1.0,0.0,0.0,119.0,0.0,1.0,0.0,1.0
119,-2.09405888665081,-0.01870931177853076,0.0,0.0,1.0,0.0,0.0,1.0,120.0,0.0,0.0,4.0,2.0
120,-0.6534528309462484,0.8314778546749452,0.0,0.0,1.0,0.0,1.0,0.0,121.0,0.0,1.0,2.0,0.0
121,-0.10753895720557247,-0.4863374216869257,0.0,0.0,1.0,0.0,0.0,1.0,122.0,0.0,1.0,0.0,0.0
122,0.21849293961177574,-0.04295550208861426,1.0,0.0,0.0,0.0,1.0,0.0,123.0,0.0,1.0,1.0,0.0
123,0.21849293961177574,-0.3866707201133388,0.0,0.0,1.0,0.0,1.0,0.0,124.0,1.0,0.0,0.0,0.0
124,1.8486524236985165,0.907737982394129,0.0,0.0,1.0,1.0,0.0,0.0,125.0,0.0,1.0,0.0,1.0
125,-1.3358451731220933,-0.42207354059350805,1.0,0.0,0.0,0.0,0.0,1.0,126.0,1.0,1.0,1.0,0.0
126,0.006193099823735021,-0.49237782784290063,0.0,1.0,0.0,0.0,0.0,1.0,127.0,0.0,1.0,0.0,0.0
127,-0.4259887168876334,-0.5046257580584992,0.0,0.0,1.0,0.0,0.0,1.0,128.0,1.0,1.0,0.0,0.0
128,-0.8505883964637149,-0.19824427701513722,1.0,0.0,0.0,0.0,0.0,1.0,129.0,1.0,0.0,1.0,1.0
129,1.1662600815226716,-0.5079822104125026,0.0,0.0,1.0,0.0,0.0,1.0,130.0,0.0,1.0,0.0,0.0
130,0.25640362528821153,-0.4894421904510968,1.0,0.0,0.0,0.0,0.0,1.0,131.0,0.0,1.0,0.0,0.0
131,-0.7292742022991201,-0.5064721088735089,0.0,0.0,1.0,0.0,0.0,1.0,132.0,0.0,1.0,0.0,0.0
132,1.3179028242284148,-0.35646868933346404,0.0,0.0,1.0,0.0,0.0,1.0,133.0,0.0,0.0,1.0,0.0
133,-0.04688186012327509,-0.12491978668775715,0.0,0.0,1.0,0.0,1.0,0.0,134.0,1.0,0.0,1.0,0.0
134,-0.35016734553476175,-0.3866707201133388,0.0,0.0,1.0,0.0,1.0,0.0,135.0,0.0,1.0,0.0,0.0
135,-0.5018100882405051,-0.3454791770670269,1.0,0.0,0.0,0.0,1.0,0.0,136.0,0.0,1.0,0.0,0.0
136,-0.8050955736519917,-0.11921562980779811,0.0,0.0,1.0,1.0,0.0,0.0,137.0,1.0,0.0,0.0,2.0
137,0.5596891106996982,0.4207302360686478,0.0,0.0,1.0,1.0,0.0,0.0,138.0,0.0,1.0,1.0,0.0
138,-1.0325596877106067,-0.4628462821463391,0.0,0.0,1.0,0.0,0.0,1.0,139.0,0.0,1.0,0.0,0.0
139,-0.4259887168876334,0.9462455716384695,1.0,0.0,0.0,1.0,0.0,0.0,140.0,0.0,1.0,0.0,0.0
140,-0.1454496428820083,-0.3414522396297103,1.0,0.0,0.0,0.0,0.0,1.0,141.0,0.0,0.0,0.0,2.0
141,-0.5776314595933767,-0.49237782784290063,0.0,0.0,1.0,0.0,0.0,1.0,142.0,1.0,0.0,0.0,0.0
142,-0.4259887168876334,-0.32928686163157667,0.0,0.0,1.0,0.0,0.0,1.0,143.0,1.0,0.0,1.0,0.0
143,-0.8050955736519917,-0.5125125150294839,0.0,1.0,0.0,0.0,0.0,1.0,144.0,0.0,1.0,0.0,0.0
144,-0.8809169450048634,-0.41687275089321363,0.0,0.0,1.0,0.0,1.0,0.0,145.0,0.0,1.0,0.0,0.0
145,-0.8050955736519917,0.09152810056801232,0.0,0.0,1.0,0.0,1.0,0.0,146.0,0.0,1.0,1.0,1.0
146,-0.1985246028290184,-0.49145565916975514,0.0,0.0,1.0,0.0,0.0,1.0,147.0,1.0,1.0,0.0,0.0
147,-1.5633092871807084,0.04370821849987721,0.0,0.0,1.0,0.0,0.0,1.0,148.0,0.0,0.0,2.0,2.0
148,0.5217784250232623,-0.12491978668775715,0.0,0.0,1.0,0.0,1.0,0.0,149.0,0.0,1.0,0.0,2.0
149,0.9387959674640565,-0.3866707201133388,0.0,0.0,1.0,0.0,1.0,0.0,150.0,0.0,1.0,0.0,0.0
150,1.6211883096399016,-0.39623469652696586,0.0,0.0,1.0,0.0,1.0,0.0,151.0,0.0,1.0,0.0,0.0
151,-0.5776314595933767,0.6925485130875209,0.0,0.0,1.0,1.0,0.0,0.0,152.0,1.0,0.0,1.0,0.0
152,1.962384480727824,-0.4863374216869257,0.0,0.0,1.0,0.0,0.0,1.0,153.0,0.0,1.0,0.0,0.0
153,0.825063910434749,-0.35646868933346404,0.0,0.0,1.0,0.0,0.0,1.0,154.0,0.0,1.0,0.0,2.0
154,-0.043090791555631454,-0.5011867534870308,0.0,0.0,1.0,0.0,0.0,1.0,155.0,0.0,1.0,0.0,0.0
155,1.6211883096399016,0.5874293382238074,1.0,0.0,0.0,1.0,0.0,0.0,156.0,0.0,1.0,0.0,1.0
156,-1.0325596877106067,-0.49271407711891657,0.0,1.0,0.0,0.0,0.0,1.0,157.0,1.0,0.0,0.0,0.0
157,0.028939511229596572,-0.4863374216869257,0.0,0.0,1.0,0.0,0.0,1.0,158.0,0.0,1.0,0.0,0.0
158,-0.32742093412890017,-0.47400492578514347,0.0,0.0,1.0,0.0,0.0,1.0,159.0,0.0,1.0,0.0,0.0
159,0.07443233404131967,0.7519458402879414,0.0,0.0,1.0,0.0,0.0,1.0,160.0,0.0,1.0,8.0,2.0
160,1.0904387101697999,-0.32425318983493084,0.0,0.0,1.0,0.0,0.0,1.0,161.0,0.0,1.0,0.0,1.0
161,0.7871532247583132,-0.331300330350235,0.0,0.0,1.0,0.0,1.0,0.0,162.0,1.0,0.0,0.0,0.0
162,-0.27434597418189005,-0.4918744606632361,0.0,0.0,1.0,0.0,0.0,1.0,163.0,0.0,1.0,0.0,0.0
163,-0.956738316357735,-0.47400492578514347,0.0,0.0,1.0,0.0,0.0,1.0,164.0,0.0,1.0,0.0,0.0
164,-2.1698802580036816,0.1506737441786005,0.0,0.0,1.0,0.0,0.0,1.0,165.0,0.0,1.0,4.0,1.0
165,-1.5633092871807084,-0.2351571990343002,0.0,0.0,1.0,0.0,0.0,1.0,166.0,1.0,1.0,0.0,2.0
166,0.08959660831189396,0.4589861417231558,0.0,0.0,1.0,1.0,0.0,0.0,167.0,1.0,0.0,0.0,1.0
167,1.1662600815226716,-0.08666388103324908,0.0,0.0,1.0,0.0,0.0,1.0,168.0,0.0,0.0,1.0,4.0
168,0.9046763503552641,-0.12642988822675086,0.0,0.0,1.0,1.0,0.0,0.0,169.0,0.0,1.0,0.0,0.0
169,-0.12270323147614676,0.48910360681684706,0.0,0.0,1.0,0.0,0.0,1.0,170.0,0.0,1.0,0.0,0.0
170,2.379402023168618,0.026090367211616904,0.0,0.0,1.0,1.0,0.0,0.0,171.0,0.0,1.0,0.0,0.0
171,-1.9424161439450667,-0.06199888922968463,0.0,1.0,0.0,0.0,0.0,1.0,172.0,0.0,1.0,4.0,1.0
172,-2.1698802580036816,-0.4242561406845337,0.0,0.0,1.0,0.0,0.0,1.0,173.0,1.0,0.0,1.0,1.0
173,-0.6534528309462484,-0.4888542575852486,0.0,0.0,1.0,0.0,0.0,1.0,174.0,0.0,1.0,0.0,0.0
174,2.0002951664042596,-0.030371322596999754,1.0,0.0,0.0,1.0,0.0,0.0,175.0,0.0,1.0,0.0,0.0
175,-0.8809169450048634,-0.4902797934380587,0.0,0.0,1.0,0.0,0.0,1.0,176.0,0.0,1.0,1.0,1.0
176,0.044103785500170856,-0.13565761536436197,0.0,0.0,1.0,0.0,0.0,1.0,177.0,0.0,1.0,3.0,1.0
177,1.5453669382870299,-0.07030444769415023,1.0,0.0,0.0,1.0,0.0,0.0,178.0,0.0,0.0,0.0,0.0
178,0.028939511229596572,-0.3866707201133388,0.0,0.0,1.0,0.0,1.0,0.0,179.0,0.0,1.0,0.0,0.0
179,0.48386773934682653,-0.6484216535389205,0.0,0.0,1.0,0.0,0.0,1.0,180.0,0.0,1.0,0.0,0.0
180,0.07443233404131967,0.7519458402879414,0.0,0.0,1.0,0.0,0.0,1.0,181.0,0.0,0.0,8.0,2.0
181,-0.06454823964849396,-0.34539461138084326,1.0,0.0,0.0,0.0,1.0,0.0,182.0,0.0,1.0,0.0,0.0
182,-1.5633092871807084,-0.016444159470040135,0.0,0.0,1.0,0.0,0.0,1.0,183.0,0.0,1.0,4.0,2.0
183,-2.1698802580036816,0.13683114673782454,0.0,0.0,1.0,0.0,1.0,0.0,184.0,1.0,1.0,2.0,1.0
184,-1.9424161439450667,-0.20495516825442542,0.0,0.0,1.0,0.0,0.0,1.0,185.0,1.0,0.0,0.0,2.0
185,0.8705567332464721,0.3583127057902398,0.0,0.0,1.0,1.0,0.0,0.0,186.0,0.0,1.0,0.0,0.0
186,-0.2515995627760285,-0.3363340021468808,0.0,1.0,0.0,0.0,0.0,1.0,187.0,1.0,0.0,1.0,0.0
187,1.1662600815226716,-0.11384570873513637,0.0,0.0,1.0,1.0,0.0,0.0,188.0,1.0,1.0,0.0,0.0
188,0.7871532247583132,-0.3363340021468808,0.0,1.0,0.0,0.0,0.0,1.0,189.0,0.0,1.0,1.0,1.0
189,0.48386773934682653,-0.4894421904510968,0.0,0.0,1.0,0.0,0.0,1.0,190.0,0.0,1.0,0.0,0.0
190,0.1805822539353399,-0.3866707201133388,0.0,0.0,1.0,0.0,1.0,0.0,191.0,1.0,0.0,0.0,0.0
191,-0.8050955736519917,-0.3866707201133388,0.0,0.0,1.0,0.0,1.0,0.0,192.0,0.0,1.0,0.0,0.0
192,-0.8050955736519917,-0.4902797934380587,0.0,0.0,1.0,0.0,0.0,1.0,193.0,1.0,0.0,1.0,0.0
193,-2.018237515297938,-0.12491978668775715,0.0,0.0,1.0,0.0,1.0,0.0,194.0,1.0,1.0,1.0,1.0
194,1.0904387101697999,-0.09027201697708476,1.0,0.0,0.0,1.0,0.0,0.0,195.0,1.0,0.0,0.0,0.0
195,2.151937909110003,2.301728820789,1.0,0.0,0.0,1.0,0.0,0.0,196.0,1.0,0.0,0.0,0.0
196,0.006193099823735021,-0.49237782784290063,0.0,1.0,0.0,0.0,0.0,1.0,197.0,0.0,1.0,0.0,0.0
197,0.9387959674640565,-0.47920571548543794,0.0,0.0,1.0,0.0,0.0,1.0,198.0,0.0,1.0,0.0,1.0
198,0.006193099823735021,-0.49237782784290063,0.0,1.0,0.0,0.0,0.0,1.0,199.0,1.0,0.0,0.0,0.0
199,-0.4259887168876334,-0.3866707201133388,0.0,0.0,1.0,0.0,1.0,0.0,200.0,0.0,0.0,0.0,0.0
200,-0.12270323147614676,-0.45714212526638004,0.0,0.0,1.0,0.0,0.0,1.0,201.0,0.0,1.0,0.0,0.0
201,0.07443233404131967,0.7519458402879414,0.0,0.0,1.0,0.0,0.0,1.0,202.0,0.0,1.0,8.0,2.0
202,0.33222499664108324,-0.5176307525123133,0.0,0.0,1.0,0.0,0.0,1.0,203.0,0.0,1.0,0.0,0.0
203,1.2041707671991073,-0.5029485386158568,1.0,0.0,0.0,0.0,0.0,1.0,204.0,0.0,1.0,0.0,0.0
204,-0.8809169450048634,-0.4863374216869257,0.0,0.0,1.0,0.0,0.0,1.0,205.0,1.0,1.0,0.0,0.0
205,-2.09405888665081,-0.43776248884929375,0.0,0.0,1.0,0.0,0.0,1.0,206.0,0.0,0.0,0.0,1.0
206,0.1805822539353399,-0.32928686163157667,0.0,0.0,1.0,0.0,0.0,1.0,207.0,0.0,1.0,1.0,0.0
207,-0.27434597418189005,-0.2701412180209885,1.0,0.0,0.0,0.0,0.0,1.0,208.0,1.0,1.0,0.0,0.0
208,-1.0325596877106067,-0.49237782784290063,0.0,1.0,0.0,0.0,0.0,1.0,209.0,1.0,0.0,0.0,0.0
209,0.7871532247583132,-0.024246350754841113,1.0,0.0,0.0,1.0,0.0,0.0,210.0,1.0,1.0,0.0,0.0
210,-0.4259887168876334,-0.5064721088735089,0.0,0.0,1.0,0.0,0.0,1.0,211.0,0.0,1.0,0.0,0.0
211,0.4080463679939549,-0.22559322262067316,0.0,0.0,1.0,0.0,1.0,0.0,212.0,1.0,0.0,0.0,0.0
212,-0.5776314595933767,-0.5024451714361923,0.0,0.0,1.0,0.0,0.0,1.0,213.0,0.0,1.0,0.0,0.0
213,0.028939511229596572,-0.3866707201133388,0.0,0.0,1.0,0.0,1.0,0.0,214.0,0.0,1.0,0.0,0.0
214,0.006193099823735021,-0.49237782784290063,0.0,1.0,0.0,0.0,0.0,1.0,215.0,0.0,1.0,1.0,0.0
215,0.10476088258246824,1.6323350375212924,1.0,0.0,0.0,1.0,0.0,0.0,216.0,1.0,0.0,1.0,0.0
216,-0.1985246028290184,-0.4888542575852486,0.0,0.0,1.0,0.0,0.0,1.0,217.0,1.0,0.0,0.0,0.0
217,0.9387959674640565,-0.10478509950117394,0.0,0.0,1.0,0.0,1.0,0.0,218.0,0.0,1.0,1.0,0.0
218,0.1805822539353399,0.8876878608937296,1.0,0.0,0.0,1.0,0.0,0.0,219.0,1.0,0.0,0.0,0.0
219,0.028939511229596572,-0.43700743807979686,0.0,0.0,1.0,0.0,1.0,0.0,220.0,0.0,1.0,0.0,0.0
220,-1.0325596877106067,-0.4863374216869257,0.0,0.0,1.0,0.0,0.0,1.0,221.0,1.0,1.0,0.0,0.0
221,-0.1985246028290184,-0.3866707201133388,0.0,0.0,1.0,0.0,1.0,0.0,222.0,0.0,1.0,0.0,0.0
222,1.6211883096399016,-0.4863374216869257,0.0,0.0,1.0,0.0,0.0,1.0,223.0,0.0,1.0,0.0,0.0
223,-0.22885315137016696,-0.4894421904510968,0.0,0.0,1.0,0.0,0.0,1.0,224.0,0.0,1.0,0.0,0.0
224,0.6355104820525699,1.163700193253568,0.0,0.0,1.0,1.0,0.0,0.0,225.0,1.0,1.0,1.0,0.0
225,-0.5776314595933767,-0.4601623283443675,0.0,0.0,1.0,0.0,0.0,1.0,226.0,0.0,1.0,0.0,0.0
226,-0.8050955736519917,-0.43700743807979686,0.0,0.0,1.0,0.0,1.0,0.0,227.0,1.0,1.0,0.0,0.0
227,-0.6913635166226842,-0.5024451714361923,0.0,0.0,1.0,0.0,0.0,1.0,228.0,0.0,1.0,0.0,0.0
228,-0.8809169450048634,-0.3866707201133388,0.0,0.0,1.0,0.0,1.0,0.0,229.0,0.0,1.0,0.0,0.0
229,0.044103785500170856,-0.13565761536436197,0.0,0.0,1.0,0.0,0.0,1.0,230.0,0.0,0.0,3.0,1.0
230,0.4080463679939549,1.0323213593611125,0.0,0.0,1.0,1.0,0.0,0.0,231.0,1.0,0.0,1.0,0.0
231,-0.04688186012327509,-0.4918744606632361,0.0,0.0,1.0,0.0,0.0,1.0,232.0,0.0,1.0,0.0,0.0
232,2.227759280462875,-0.3766033765200472,0.0,0.0,1.0,0.0,1.0,0.0,233.0,0.0,1.0,0.0,0.0
233,-1.866594772592195,-0.016444159470040135,0.0,0.0,1.0,0.0,0.0,1.0,234.0,1.0,0.0,4.0,2.0
234,-0.4259887168876334,-0.43700743807979686,0.0,0.0,1.0,0.0,1.0,0.0,235.0,0.0,1.0,0.0,0.0
235,-0.18336032855844414,-0.49640476528021726,0.0,0.0,1.0,0.0,0.0,1.0,236.0,0.0,0.0,0.0,0.0
236,1.0904387101697999,-0.12491978668775715,0.0,0.0,1.0,0.0,1.0,0.0,237.0,0.0,1.0,1.0,0.0
237,-1.63913065853358,-0.11988611489111134,0.0,0.0,1.0,0.0,1.0,0.0,238.0,1.0,0.0,0.0,2.0
238,-0.8050955736519917,-0.43700743807979686,0.0,0.0,1.0,0.0,1.0,0.0,239.0,0.0,1.0,0.0,0.0
239,0.25640362528821153,-0.4012683683236117,0.0,0.0,1.0,0.0,1.0,0.0,240.0,0.0,1.0,0.0,0.0
240,-0.6824924161743985,-0.3573908580066095,1.0,0.0,0.0,0.0,0.0,1.0,241.0,0.0,0.0,1.0,0.0
241,-0.2515995627760285,-0.3363340021468808,0.0,1.0,0.0,0.0,0.0,1.0,242.0,1.0,0.0,1.0,0.0
242,-0.04688186012327509,-0.43700743807979686,0.0,0.0,1.0,0.0,1.0,0.0,243.0,0.0,1.0,0.0,0.0
243,-0.5776314595933767,-0.5049620073345151,0.0,0.0,1.0,0.0,0.0,1.0,244.0,0.0,1.0,0.0,0.0
244,0.028939511229596572,-0.5029485386158568,1.0,0.0,0.0,0.0,0.0,1.0,245.0,0.0,1.0,0.0,0.0
245,1.0904387101697999,1.163700193253568,0.0,1.0,0.0,1.0,0.0,0.0,246.0,0.0,1.0,2.0,0.0
246,-0.35016734553476175,-0.4918744606632361,0.0,0.0,1.0,0.0,0.0,1.0,247.0,0.0,0.0,0.0,0.0
247,-0.4259887168876334,-0.35646868933346404,0.0,0.0,1.0,0.0,1.0,0.0,248.0,1.0,0.0,0.0,2.0
248,0.5596891106996982,0.40974072380221066,0.0,0.0,1.0,1.0,0.0,0.0,249.0,1.0,1.0,1.0,1.0
249,1.8486524236985165,-0.12491978668775715,0.0,0.0,1.0,0.0,1.0,0.0,250.0,0.0,1.0,1.0,0.0
250,-0.043090791555631454,-0.5024451714361923,0.0,0.0,1.0,0.0,0.0,1.0,251.0,0.0,1.0,0.0,0.0
251,-0.04688186012327509,-0.43776248884929375,0.0,0.0,1.0,0.0,0.0,1.0,252.0,0.0,0.0,1.0,1.0
252,2.45522339452149,-0.11384570873513637,0.0,0.0,1.0,1.0,0.0,0.0,253.0,0.0,1.0,0.0,0.0
253,0.028939511229596572,-0.32425318983493084,0.0,0.0,1.0,0.0,0.0,1.0,254.0,0.0,1.0,1.0,0.0
254,0.8629745961111849,-0.2414492887801075,0.0,0.0,1.0,0.0,0.0,1.0,255.0,0.0,0.0,0.0,2.0
255,-0.04688186012327509,-0.3414522396297103,1.0,0.0,0.0,0.0,0.0,1.0,256.0,1.0,0.0,0.0,2.0
256,0.7947353618936005,0.9462455716384695,1.0,0.0,0.0,1.0,0.0,0.0,257.0,1.0,0.0,0.0,0.0
257,0.028939511229596572,1.093228788100527,0.0,0.0,1.0,1.0,0.0,0.0,258.0,1.0,0.0,0.0,0.0
258,0.4080463679939549,9.667166525013505,1.0,0.0,0.0,1.0,0.0,0.0,259.0,1.0,0.0,0.0,0.0
259,1.5453669382870299,-0.12491978668775715,0.0,0.0,1.0,0.0,1.0,0.0,260.0,1.0,0.0,0.0,1.0
260,0.006193099823735021,-0.49237782784290063,0.0,1.0,0.0,0.0,0.0,1.0,261.0,0.0,1.0,0.0,0.0
261,-2.018237515297938,-0.016444159470040135,0.0,0.0,1.0,0.0,0.0,1.0,262.0,1.0,1.0,4.0,2.0
262,1.697009680992773,0.955306180872432,0.0,0.0,1.0,1.0,0.0,0.0,263.0,0.0,1.0,1.0,1.0
263,0.7871532247583132,-0.6484216535389205,0.0,0.0,1.0,1.0,0.0,0.0,264.0,0.0,1.0,0.0,0.0
264,0.006193099823735021,-0.49237782784290063,0.0,1.0,0.0,0.0,0.0,1.0,265.0,0.0,0.0,0.0,0.0
265,0.48386773934682653,-0.43700743807979686,0.0,0.0,1.0,0.0,1.0,0.0,266.0,0.0,1.0,0.0,0.0
266,-1.0325596877106067,0.1506737441786005,0.0,0.0,1.0,0.0,0.0,1.0,267.0,0.0,1.0,4.0,1.0
267,-0.35016734553476175,-0.4918744606632361,0.0,0.0,1.0,0.0,0.0,1.0,268.0,1.0,1.0,1.0,0.0
268,2.151937909110003,2.441497778832105,0.0,0.0,1.0,1.0,0.0,0.0,269.0,1.0,0.0,0.0,1.0
269,0.4080463679939549,2.0825124140450755,0.0,0.0,1.0,1.0,0.0,0.0,270.0,1.0,0.0,0.0,0.0
270,-0.456317265428782,-0.024246350754841113,0.0,0.0,1.0,1.0,0.0,0.0,271.0,0.0,1.0,0.0,0.0
271,-0.35016734553476175,-0.6484216535389205,0.0,0.0,1.0,0.0,0.0,1.0,272.0,1.0,1.0,0.0,0.0
272,0.8629745961111849,-0.255795253400548,0.0,0.0,1.0,0.0,1.0,0.0,273.0,1.0,0.0,0.0,1.0
273,0.5596891106996982,-0.05042144409739929,1.0,0.0,0.0,1.0,0.0,0.0,274.0,0.0,1.0,0.0,1.0
274,0.006193099823735021,-0.49237782784290063,0.0,1.0,0.0,0.0,0.0,1.0,275.0,1.0,0.0,0.0,0.0
275,2.531044765874362,0.921244330558889,0.0,0.0,1.0,1.0,0.0,0.0,276.0,1.0,0.0,1.0,0.0
276,1.1662600815226716,-0.49237782784290063,0.0,0.0,1.0,0.0,0.0,1.0,277.0,0.0,0.0,0.0,0.0
277,0.48386773934682653,-0.6484216535389205,0.0,0.0,1.0,0.0,1.0,0.0,278.0,0.0,1.0,0.0,0.0
278,-1.7149520298864516,-0.06199888922968463,0.0,1.0,0.0,0.0,0.0,1.0,279.0,0.0,1.0,4.0,1.0
279,0.4080463679939549,-0.24069423801061057,0.0,0.0,1.0,0.0,0.0,1.0,280.0,1.0,0.0,1.0,1.0
280,2.682687508580105,-0.49237782784290063,0.0,1.0,0.0,0.0,0.0,1.0,281.0,0.0,1.0,0.0,0.0
281,-0.12270323147614676,-0.4902797934380587,0.0,0.0,1.0,0.0,0.0,1.0,282.0,0.0,1.0,0.0,0.0
282,-1.0325596877106067,-0.45714212526638004,0.0,0.0,1.0,0.0,0.0,1.0,283.0,0.0,1.0,0.0,0.0
283,-0.8050955736519917,-0.4863374216869257,0.0,0.0,1.0,0.0,0.0,1.0,284.0,1.0,1.0,0.0,0.0
284,-0.16440498572022622,-0.12491978668775715,0.0,0.0,1.0,1.0,0.0,0.0,285.0,0.0,1.0,0.0,0.0
285,0.25640362528821153,-0.47400492578514347,1.0,0.0,0.0,0.0,0.0,1.0,286.0,0.0,1.0,0.0,0.0
286,0.028939511229596572,-0.45714212526638004,0.0,0.0,1.0,0.0,0.0,1.0,287.0,1.0,1.0,0.0,0.0
287,-0.5776314595933767,-0.4894421904510968,0.0,0.0,1.0,0.0,0.0,1.0,288.0,0.0,1.0,0.0,0.0
288,0.9387959674640565,-0.3866707201133388,0.0,0.0,1.0,0.0,1.0,0.0,289.0,1.0,1.0,0.0,0.0
289,-0.5776314595933767,-0.49237782784290063,0.0,1.0,0.0,0.0,0.0,1.0,290.0,1.0,0.0,0.0,0.0
290,-0.27434597418189005,0.9391984311231651,0.0,0.0,1.0,1.0,0.0,0.0,291.0,1.0,0.0,0.0,0.0
291,-0.8050955736519917,1.1854295476653287,1.0,0.0,0.0,1.0,0.0,0.0,292.0,1.0,0.0,1.0,0.0
292,0.48386773934682653,-0.3891875560116617,1.0,0.0,0.0,0.0,1.0,0.0,293.0,0.0,1.0,0.0,0.0
293,-0.4259887168876334,-0.4702296719376591,0.0,0.0,1.0,0.0,0.0,1.0,294.0,0.0,0.0,0.0,0.0
294,-0.4259887168876334,-0.4894421904510968,0.0,0.0,1.0,0.0,0.0,1.0,295.0,0.0,1.0,0.0,0.0
295,0.11992515685304252,-0.09027201697708476,1.0,0.0,0.0,1.0,0.0,0.0,296.0,0.0,1.0,0.0,0.0
296,-0.46389940256406925,-0.5028639729296732,1.0,0.0,0.0,0.0,0.0,1.0,297.0,0.0,1.0,0.0,0.0
297,-2.09405888665081,2.4029901895877646,0.0,0.0,1.0,1.0,0.0,0.0,298.0,0.0,0.0,1.0,2.0
298,0.34359820234401384,-0.034313694348132716,0.0,0.0,1.0,1.0,0.0,0.0,299.0,1.0,1.0,0.0,0.0
299,1.5453669382870299,4.335332226633905,1.0,0.0,0.0,1.0,0.0,0.0,300.0,1.0,0.0,0.0,1.0
300,0.006193099823735021,-0.49237782784290063,0.0,1.0,0.0,0.0,0.0,1.0,301.0,1.0,0.0,0.0,0.0
301,-0.008971174446839257,-0.18029017645086096,0.0,1.0,0.0,0.0,0.0,1.0,302.0,1.0,1.0,2.0,0.0
302,-0.8050955736519917,-0.6484216535389205,0.0,0.0,1.0,0.0,0.0,1.0,303.0,0.0,1.0,0.0,0.0
303,-0.20610673996430567,-0.3997582667846179,0.0,1.0,0.0,0.0,1.0,0.0,304.0,1.0,0.0,0.0,0.0
304,-0.10753895720557247,-0.4863374216869257,0.0,0.0,1.0,0.0,0.0,1.0,305.0,0.0,1.0,0.0,0.0
305,-2.175945967711911,2.4029901895877646,0.0,0.0,1.0,1.0,0.0,0.0,306.0,1.0,1.0,1.0,2.0
306,0.27156789955878613,1.5841789061771412,1.0,0.0,0.0,1.0,0.0,0.0,307.0,1.0,0.0,0.0,0.0
307,-0.956738316357735,1.5442457810799908,1.0,0.0,0.0,1.0,0.0,0.0,308.0,1.0,0.0,1.0,0.0
308,0.028939511229596572,-0.16518916106092355,1.0,0.0,0.0,0.0,1.0,0.0,309.0,0.0,1.0,1.0,0.0
309,0.028939511229596572,0.49782998024351216,1.0,0.0,0.0,1.0,0.0,0.0,310.0,1.0,0.0,0.0,0.0
310,-0.4259887168876334,1.0259447039291216,1.0,0.0,0.0,1.0,0.0,0.0,311.0,1.0,0.0,0.0,0.0
311,-0.8809169450048634,4.634416897040849,1.0,0.0,0.0,1.0,0.0,0.0,312.0,1.0,0.0,2.0,2.0
312,-0.27434597418189005,-0.12491978668775715,0.0,0.0,1.0,0.0,1.0,0.0,313.0,0.0,0.0,1.0,1.0
313,-0.12270323147614676,-0.4894421904510968,0.0,0.0,1.0,0.0,0.0,1.0,314.0,0.0,1.0,0.0,0.0
314,1.0146173388169282,-0.11988611489111134,0.0,0.0,1.0,0.0,1.0,0.0,315.0,0.0,1.0,1.0,1.0
315,-0.27434597418189005,-0.4902797934380587,0.0,0.0,1.0,0.0,0.0,1.0,316.0,1.0,0.0,0.0,0.0
316,-0.4259887168876334,-0.12491978668775715,0.0,0.0,1.0,0.0,1.0,0.0,317.0,1.0,0.0,1.0,0.0
317,1.8486524236985165,-0.36653603292675563,0.0,0.0,1.0,0.0,1.0,0.0,318.0,0.0,1.0,0.0,0.0
318,0.10476088258246824,2.671117778445337,0.0,0.0,1.0,1.0,0.0,0.0,319.0,1.0,0.0,0.0,2.0
319,0.7871532247583132,2.059693773056521,1.0,0.0,0.0,1.0,0.0,0.0,320.0,1.0,0.0,1.0,1.0
320,-0.5776314595933767,-0.5024451714361923,0.0,0.0,1.0,0.0,0.0,1.0,321.0,0.0,1.0,0.0,0.0
321,-0.1985246028290184,-0.4894421904510968,0.0,0.0,1.0,0.0,0.0,1.0,322.0,0.0,1.0,0.0,0.0
322,0.028939511229596572,-0.3997582667846179,0.0,1.0,0.0,0.0,1.0,0.0,323.0,1.0,0.0,0.0,0.0
323,-0.5776314595933767,-0.06451572512800753,0.0,0.0,1.0,0.0,1.0,0.0,324.0,1.0,0.0,1.0,1.0
324,0.07443233404131967,0.7519458402879414,0.0,0.0,1.0,0.0,0.0,1.0,325.0,0.0,1.0,8.0,2.0
325,0.48386773934682653,2.0825124140450755,1.0,0.0,0.0,1.0,0.0,0.0,326.0,1.0,0.0,0.0,0.0
326,2.379402023168618,-0.5228315422126077,0.0,0.0,1.0,0.0,0.0,1.0,327.0,0.0,1.0,0.0,0.0
327,0.48386773934682653,-0.3866707201133388,0.0,0.0,1.0,0.0,1.0,0.0,328.0,1.0,0.0,0.0,0.0
328,0.10476088258246824,-0.2351571990343002,0.0,0.0,1.0,0.0,0.0,1.0,329.0,1.0,0.0,1.0,1.0
329,-1.0325596877106067,0.5189714017894245,1.0,0.0,0.0,1.0,0.0,0.0,330.0,1.0,0.0,0.0,1.0
330,-0.008971174446839257,-0.18029017645086096,0.0,1.0,0.0,0.0,0.0,1.0,331.0,1.0,0.0,2.0,0.0
331,1.2041707671991073,-0.07458306872129913,0.0,0.0,1.0,1.0,0.0,0.0,332.0,0.0,1.0,0.0,0.0
332,0.6355104820525699,2.441497778832105,0.0,0.0,1.0,1.0,0.0,0.0,333.0,0.0,1.0,0.0,1.0
333,-1.0325596877106067,-0.2859972841804228,0.0,0.0,1.0,0.0,0.0,1.0,334.0,0.0,1.0,2.0,0.0
334,0.5445248364291236,2.042579288947925,0.0,0.0,1.0,1.0,0.0,0.0,335.0,1.0,0.0,1.0,0.0
335,-0.22885315137016696,-0.4894421904510968,0.0,0.0,1.0,0.0,0.0,1.0,336.0,0.0,1.0,0.0,0.0
336,-0.04688186012327509,0.6925485130875209,0.0,0.0,1.0,1.0,0.0,0.0,337.0,0.0,1.0,1.0,0.0
337,0.8629745961111849,2.059693773056521,1.0,0.0,0.0,1.0,0.0,0.0,338.0,1.0,0.0,0.0,0.0
338,1.1662600815226716,-0.4863374216869257,0.0,0.0,1.0,0.0,0.0,1.0,339.0,1.0,1.0,0.0,0.0
339,1.1662600815226716,0.06635974158478332,0.0,0.0,1.0,1.0,0.0,0.0,340.0,0.0,1.0,0.0,0.0
340,-2.09405888665081,-0.12491978668775715,0.0,0.0,1.0,0.0,1.0,0.0,341.0,1.0,1.0,1.0,1.0
341,-0.4259887168876334,4.647001076532463,0.0,0.0,1.0,1.0,0.0,0.0,342.0,1.0,0.0,3.0,2.0
342,-0.12270323147614676,-0.3866707201133388,0.0,0.0,1.0,0.0,1.0,0.0,343.0,0.0,1.0,0.0,0.0
343,-0.35016734553476175,-0.3866707201133388,0.0,0.0,1.0,0.0,1.0,0.0,344.0,0.0,1.0,0.0,0.0
344,0.48386773934682653,-0.3866707201133388,0.0,0.0,1.0,0.0,1.0,0.0,345.0,0.0,1.0,0.0,0.0
345,-0.4259887168876334,-0.3866707201133388,0.0,0.0,1.0,0.0,1.0,0.0,346.0,1.0,0.0,0.0,0.0
346,0.7871532247583132,-0.3866707201133388,0.0,0.0,1.0,0.0,1.0,0.0,347.0,1.0,0.0,0.0,0.0
347,-0.17198712285551324,-0.32425318983493084,0.0,0.0,1.0,0.0,0.0,1.0,348.0,1.0,0.0,1.0,0.0
348,-2.018237515297938,-0.32828012727224753,0.0,0.0,1.0,0.0,0.0,1.0,349.0,1.0,1.0,1.0,1.0
349,0.9387959674640565,-0.47400492578514347,0.0,0.0,1.0,0.0,0.0,1.0,350.0,0.0,1.0,0.0,0.0
350,-0.5018100882405051,-0.4626791642426904,0.0,0.0,1.0,0.0,0.0,1.0,351.0,0.0,1.0,0.0,0.0
351,0.8023174990288877,0.05629239799149171,0.0,0.0,1.0,1.0,0.0,0.0,352.0,0.0,1.0,0.0,0.0
352,-1.1083810590634784,-0.5028639729296732,1.0,0.0,0.0,0.0,0.0,1.0,353.0,0.0,1.0,1.0,1.0
353,-0.35016734553476175,-0.29002422161773944,0.0,0.0,1.0,0.0,0.0,1.0,354.0,0.0,1.0,1.0,0.0
354,-0.293301317020108,-0.5029485386158568,1.0,0.0,0.0,0.0,0.0,1.0,355.0,0.0,1.0,0.0,0.0
355,-0.12270323147614676,-0.45714212526638004,0.0,0.0,1.0,0.0,0.0,1.0,356.0,0.0,1.0,0.0,0.0
356,-0.5776314595933767,0.4589861417231558,0.0,0.0,1.0,1.0,0.0,0.0,357.0,1.0,0.0,0.0,1.0
357,0.6355104820525699,-0.3866707201133388,0.0,0.0,1.0,0.0,1.0,0.0,358.0,0.0,0.0,0.0,0.0
358,0.18816439107062718,-0.48977642625839407,0.0,1.0,0.0,0.0,0.0,1.0,359.0,1.0,0.0,0.0,0.0
359,0.18816439107062718,-0.48977642625839407,0.0,1.0,0.0,0.0,0.0,1.0,360.0,1.0,0.0,0.0,0.0
360,0.7871532247583132,-0.08666388103324908,0.0,0.0,1.0,0.0,0.0,1.0,361.0,0.0,1.0,1.0,4.0
361,-0.04688186012327509,-0.09027201697708476,1.0,0.0,0.0,0.0,1.0,0.0,362.0,0.0,1.0,1.0,0.0
362,1.1662600815226716,-0.3573908580066095,1.0,0.0,0.0,0.0,0.0,1.0,363.0,0.0,0.0,0.0,1.0
363,0.4080463679939549,-0.5064721088735089,0.0,0.0,1.0,0.0,0.0,1.0,364.0,0.0,1.0,0.0,0.0
364,-0.2515995627760285,-0.3363340021468808,0.0,1.0,0.0,0.0,0.0,1.0,365.0,0.0,1.0,1.0,0.0
365,0.028939511229596572,-0.5024451714361923,0.0,0.0,1.0,0.0,0.0,1.0,366.0,0.0,1.0,0.0,0.0
366,2.3035806518157464,0.8667135572514657,1.0,0.0,0.0,1.0,0.0,0.0,367.0,1.0,0.0,1.0,0.0
367,-0.31604772842596957,-0.5028639729296732,1.0,0.0,0.0,0.0,0.0,1.0,368.0,1.0,0.0,0.0,0.0
368,0.006193099823735021,-0.49237782784290063,0.0,1.0,0.0,0.0,0.0,1.0,369.0,1.0,0.0,0.0,0.0
369,-0.4259887168876334,0.7469121684912956,1.0,0.0,0.0,1.0,0.0,0.0,370.0,1.0,0.0,0.0,0.0
370,-0.35016734553476175,0.4678796330534696,1.0,0.0,0.0,1.0,0.0,0.0,371.0,1.0,1.0,1.0,0.0
371,-0.8809169450048634,-0.5176307525123133,0.0,0.0,1.0,0.0,0.0,1.0,372.0,0.0,1.0,1.0,0.0
372,-0.8050955736519917,-0.4863374216869257,0.0,0.0,1.0,0.0,0.0,1.0,373.0,0.0,1.0,0.0,0.0
373,-0.5776314595933767,2.0825124140450755,1.0,0.0,0.0,1.0,0.0,0.0,374.0,0.0,1.0,0.0,0.0
374,-2.018237515297938,-0.22408312108167944,0.0,0.0,1.0,0.0,0.0,1.0,375.0,0.0,0.0,3.0,1.0
375,0.6582568934584312,1.0060617003323709,1.0,0.0,0.0,1.0,0.0,0.0,376.0,1.0,0.0,1.0,0.0
376,-0.5776314595933767,-0.5024451714361923,0.0,0.0,1.0,0.0,0.0,1.0,377.0,1.0,0.0,0.0,0.0
377,-0.1985246028290184,3.610064686423428,1.0,0.0,0.0,1.0,0.0,0.0,378.0,0.0,1.0,0.0,2.0
378,-0.7292742022991201,-0.5676312212027554,1.0,0.0,0.0,0.0,0.0,1.0,379.0,0.0,1.0,0.0,0.0
379,-0.8050955736519917,-0.4918744606632361,0.0,0.0,1.0,0.0,0.0,1.0,380.0,0.0,1.0,0.0,0.0
380,0.9387959674640565,3.9327230485884233,1.0,0.0,0.0,1.0,0.0,0.0,381.0,1.0,0.0,0.0,0.0
381,-2.1698802580036816,-0.33146744825388363,1.0,0.0,0.0,0.0,0.0,1.0,382.0,1.0,0.0,0.0,2.0
382,0.1805822539353399,-0.4888542575852486,0.0,0.0,1.0,0.0,0.0,1.0,383.0,0.0,1.0,0.0,0.0
383,0.4080463679939549,0.39858208016340624,0.0,0.0,1.0,1.0,0.0,0.0,384.0,1.0,0.0,1.0,0.0
384,-0.22885315137016696,-0.4894421904510968,0.0,0.0,1.0,0.0,0.0,1.0,385.0,0.0,1.0,0.0,0.0
385,-0.8809169450048634,0.8314778546749452,0.0,0.0,1.0,0.0,1.0,0.0,386.0,0.0,1.0,0.0,0.0
386,-2.1698802580036816,0.2958951755118318,0.0,0.0,1.0,0.0,0.0,1.0,387.0,0.0,1.0,5.0,2.0
387,0.48386773934682653,-0.3866707201133388,0.0,0.0,1.0,0.0,1.0,0.0,388.0,1.0,0.0,0.0,0.0
388,-0.3084655912906823,-0.49279662933638163,0.0,1.0,0.0,0.0,0.0,1.0,389.0,0.0,1.0,0.0,0.0
389,-0.956738316357735,-0.40680540729992204,1.0,0.0,0.0,0.0,1.0,0.0,390.0,1.0,0.0,0.0,0.0
390,0.48386773934682653,1.7677408088510642,0.0,0.0,1.0,1.0,0.0,0.0,391.0,1.0,1.0,1.0,2.0
391,-0.6534528309462484,-0.49145565916975514,0.0,0.0,1.0,0.0,0.0,1.0,392.0,1.0,1.0,0.0,0.0
392,-0.12270323147614676,-0.4888542575852486,0.0,0.0,1.0,0.0,0.0,1.0,393.0,0.0,1.0,2.0,0.0
393,-0.5018100882405051,1.6323350375212924,1.0,0.0,0.0,1.0,0.0,0.0,394.0,1.0,0.0,1.0,0.0
394,-0.4259887168876334,-0.312172377522981,0.0,0.0,1.0,0.0,0.0,1.0,395.0,1.0,0.0,0.0,2.0
395,-0.5776314595933767,-0.49145565916975514,0.0,0.0,1.0,0.0,0.0,1.0,396.0,0.0,1.0,0.0,0.0
396,0.10476088258246824,-0.4902797934380587,0.0,0.0,1.0,0.0,0.0,1.0,397.0,0.0,0.0,0.0,0.0
397,1.2420814528755433,-0.12491978668775715,0.0,0.0,1.0,0.0,1.0,0.0,398.0,0.0,1.0,0.0,0.0
398,-0.5018100882405051,-0.43700743807979686,0.0,0.0,1.0,0.0,1.0,0.0,399.0,0.0,1.0,0.0,0.0
399,-0.12270323147614676,-0.393717860628643,0.0,0.0,1.0,0.0,1.0,0.0,400.0,1.0,0.0,0.0,0.0
400,0.7113318534054416,-0.4888542575852486,0.0,0.0,1.0,0.0,0.0,1.0,401.0,1.0,1.0,0.0,0.0
401,-0.27434597418189005,-0.4863374216869257,0.0,0.0,1.0,0.0,0.0,1.0,402.0,0.0,1.0,0.0,0.0
402,-0.6534528309462484,-0.4505983519307405,0.0,0.0,1.0,0.0,0.0,1.0,403.0,0.0,0.0,1.0,0.0
403,-0.12270323147614676,-0.32928686163157667,0.0,0.0,1.0,0.0,0.0,1.0,404.0,0.0,1.0,1.0,0.0
404,-0.7292742022991201,-0.47400492578514347,0.0,0.0,1.0,0.0,0.0,1.0,405.0,0.0,0.0,0.0,0.0
405,0.33222499664108324,-0.22559322262067316,0.0,0.0,1.0,0.0,1.0,0.0,406.0,0.0,1.0,1.0,0.0
406,1.6211883096399016,-0.49237782784290063,0.0,0.0,1.0,0.0,0.0,1.0,407.0,0.0,1.0,0.0,0.0
407,-2.018237515297938,-0.2708962687904854,0.0,0.0,1.0,0.0,1.0,0.0,408.0,1.0,1.0,1.0,1.0
408,-0.6534528309462484,-0.4918744606632361,0.0,0.0,1.0,0.0,0.0,1.0,409.0,0.0,1.0,0.0,0.0
409,0.044103785500170856,-0.13565761536436197,0.0,0.0,1.0,0.0,0.0,1.0,410.0,0.0,0.0,3.0,1.0
410,-0.22885315137016696,-0.4894421904510968,0.0,0.0,1.0,0.0,0.0,1.0,411.0,0.0,1.0,0.0,0.0
411,-0.22127101423487996,-0.5103319284071769,0.0,1.0,0.0,0.0,0.0,1.0,412.0,0.0,1.0,0.0,0.0
412,0.25640362528821153,1.163700193253568,0.0,1.0,0.0,1.0,0.0,0.0,413.0,1.0,0.0,1.0,0.0
413,0.48386773934682653,-0.6484216535389205,0.0,0.0,1.0,0.0,1.0,0.0,414.0,0.0,1.0,0.0,0.0
414,1.0904387101697999,-0.4888542575852486,0.0,0.0,1.0,0.0,0.0,1.0,415.0,1.0,1.0,0.0,0.0
415,-0.10753895720557247,-0.4863374216869257,0.0,0.0,1.0,0.0,0.0,1.0,416.0,0.0,0.0,0.0,0.0
416,0.33222499664108324,0.005955680025033696,0.0,0.0,1.0,0.0,1.0,0.0,417.0,1.0,0.0,1.0,1.0
417,-0.8809169450048634,-0.3866707201133388,0.0,0.0,1.0,0.0,1.0,0.0,418.0,1.0,0.0,0.0,2.0
418,0.028939511229596572,-0.3866707201133388,0.0,0.0,1.0,0.0,1.0,0.0,419.0,0.0,1.0,0.0,0.0
419,-1.4874879158278367,-0.1621689579829361,0.0,0.0,1.0,0.0,0.0,1.0,420.0,0.0,0.0,0.0,2.0
420,-0.22885315137016696,-0.4894421904510968,1.0,0.0,0.0,0.0,0.0,1.0,421.0,0.0,1.0,0.0,0.0
421,-0.6534528309462484,-0.49271407711891657,0.0,1.0,0.0,0.0,0.0,1.0,422.0,0.0,1.0,0.0,0.0
422,-0.04688186012327509,-0.4898609919445778,0.0,0.0,1.0,0.0,0.0,1.0,423.0,0.0,1.0,0.0,0.0
423,-0.12270323147614676,-0.35848215805212236,0.0,0.0,1.0,0.0,0.0,1.0,424.0,0.0,0.0,1.0,1.0
424,-0.8809169450048634,-0.2414492887801075,0.0,0.0,1.0,0.0,0.0,1.0,425.0,0.0,1.0,1.0,1.0
425,-0.043090791555631454,-0.5024451714361923,0.0,0.0,1.0,0.0,0.0,1.0,426.0,0.0,1.0,0.0,0.0
426,-0.12270323147614676,-0.12491978668775715,0.0,0.0,1.0,0.0,1.0,0.0,427.0,1.0,0.0,1.0,0.0
427,-0.8050955736519917,-0.12491978668775715,0.0,0.0,1.0,0.0,1.0,0.0,428.0,1.0,0.0,0.0,0.0
428,0.006193099823735021,-0.49237782784290063,0.0,1.0,0.0,0.0,0.0,1.0,429.0,0.0,1.0,0.0,0.0
429,0.1805822539353399,-0.4863374216869257,0.0,0.0,1.0,0.0,0.0,1.0,430.0,1.0,1.0,0.0,0.0
430,-0.12270323147614676,-0.11384570873513637,0.0,0.0,1.0,1.0,0.0,0.0,431.0,1.0,1.0,0.0,0.0
431,-0.17198712285551324,-0.32425318983493084,0.0,0.0,1.0,0.0,0.0,1.0,432.0,1.0,0.0,1.0,0.0
432,0.9387959674640565,-0.12491978668775715,0.0,0.0,1.0,0.0,1.0,0.0,433.0,1.0,0.0,1.0,0.0
433,-0.956738316357735,-0.5049620073345151,0.0,0.0,1.0,0.0,0.0,1.0,434.0,0.0,1.0,0.0,0.0
434,1.5453669382870299,0.4771073601910807,0.0,0.0,1.0,1.0,0.0,0.0,435.0,0.0,1.0,1.0,0.0
435,-1.18420243041635,1.7677408088510642,0.0,0.0,1.0,1.0,0.0,0.0,436.0,1.0,0.0,1.0,2.0
436,-0.6534528309462484,0.04370821849987721,0.0,0.0,1.0,0.0,0.0,1.0,437.0,0.0,0.0,2.0,2.0
437,-0.4259887168876334,-0.2708962687904854,0.0,0.0,1.0,0.0,1.0,0.0,438.0,1.0,0.0,2.0,3.0
438,2.6068661372272333,4.647001076532463,0.0,0.0,1.0,1.0,0.0,0.0,439.0,0.0,1.0,1.0,4.0
439,0.10476088258246824,-0.43700743807979686,0.0,0.0,1.0,0.0,1.0,0.0,440.0,0.0,1.0,0.0,0.0
440,1.1662600815226716,-0.11988611489111134,0.0,0.0,1.0,0.0,1.0,0.0,441.0,1.0,0.0,1.0,1.0
441,-0.7292742022991201,-0.45714212526638004,0.0,0.0,1.0,0.0,0.0,1.0,442.0,0.0,1.0,0.0,0.0
442,-0.35016734553476175,-0.4918744606632361,0.0,0.0,1.0,0.0,0.0,1.0,443.0,0.0,1.0,1.0,0.0
443,-0.12270323147614676,-0.3866707201133388,0.0,0.0,1.0,0.0,1.0,0.0,444.0,1.0,0.0,0.0,0.0
444,-0.1795692599908005,-0.48507900373776425,0.0,0.0,1.0,0.0,0.0,1.0,445.0,1.0,1.0,0.0,0.0
445,-1.9424161439450667,0.9997696105865636,0.0,0.0,1.0,1.0,0.0,0.0,446.0,1.0,1.0,0.0,2.0
446,-1.2600238017692216,-0.255795253400548,0.0,0.0,1.0,0.0,1.0,0.0,447.0,1.0,0.0,0.0,1.0
447,0.33222499664108324,-0.11384570873513637,0.0,0.0,1.0,1.0,0.0,0.0,448.0,1.0,1.0,0.0,0.0
448,-1.866594772592195,-0.26066180729354516,1.0,0.0,0.0,0.0,0.0,1.0,449.0,1.0,0.0,2.0,1.0
449,1.697009680992773,-0.034313694348132716,0.0,0.0,1.0,1.0,0.0,0.0,450.0,1.0,1.0,0.0,0.0
450,0.48386773934682653,-0.08968408411123653,0.0,0.0,1.0,0.0,1.0,0.0,451.0,0.0,1.0,1.0,2.0
451,-0.44115299115820766,-0.2463983948905696,0.0,0.0,1.0,0.0,0.0,1.0,452.0,0.0,1.0,1.0,0.0
452,0.028939511229596572,-0.08968408411123653,1.0,0.0,0.0,1.0,0.0,0.0,453.0,0.0,1.0,0.0,0.0
453,1.4695455669341582,1.145663540471827,1.0,0.0,0.0,1.0,0.0,0.0,454.0,1.0,1.0,1.0,0.0
454,-0.10753895720557247,-0.4863374216869257,0.0,0.0,1.0,0.0,0.0,1.0,455.0,0.0,1.0,0.0,0.0
455,-0.04688186012327509,-0.4894421904510968,1.0,0.0,0.0,0.0,0.0,1.0,456.0,1.0,1.0,0.0,0.0
456,2.682687508580105,-0.11384570873513637,0.0,0.0,1.0,1.0,0.0,0.0,457.0,0.0,1.0,0.0,0.0
457,1.0601101616286512,0.395813560675251,0.0,0.0,1.0,1.0,0.0,0.0,458.0,1.0,0.0,1.0,0.0
458,1.5453669382870299,-0.43700743807979686,0.0,0.0,1.0,0.0,1.0,0.0,459.0,1.0,0.0,0.0,0.0
459,0.006193099823735021,-0.49237782784290063,0.0,1.0,0.0,0.0,0.0,1.0,460.0,0.0,1.0,0.0,0.0
460,1.3937241955812865,-0.11384570873513637,0.0,0.0,1.0,1.0,0.0,0.0,461.0,1.0,1.0,0.0,0.0
461,0.33222499664108324,-0.4863374216869257,0.0,0.0,1.0,0.0,0.0,1.0,462.0,0.0,1.0,0.0,0.0
462,1.3179028242284148,0.12676380314453292,0.0,0.0,1.0,1.0,0.0,0.0,463.0,0.0,1.0,0.0,0.0
463,1.3937241955812865,-0.3866707201133388,0.0,0.0,1.0,0.0,1.0,0.0,464.0,0.0,1.0,0.0,0.0
464,-0.10753895720557247,-0.4863374216869257,0.0,0.0,1.0,0.0,0.0,1.0,465.0,0.0,1.0,0.0,0.0
465,0.6355104820525699,-0.5064721088735089,0.0,0.0,1.0,0.0,0.0,1.0,466.0,0.0,1.0,0.0,0.0
466,0.48386773934682653,-0.6484216535389205,0.0,0.0,1.0,0.0,1.0,0.0,467.0,0.0,1.0,0.0,0.0
467,2.0002951664042596,-0.11384570873513637,0.0,0.0,1.0,1.0,0.0,0.0,468.0,0.0,1.0,0.0,0.0
468,0.5407337678614803,-0.4928811950225652,0.0,1.0,0.0,0.0,0.0,1.0,469.0,0.0,1.0,0.0,0.0
469,-2.1888356008418994,-0.26066180729354516,1.0,0.0,0.0,0.0,0.0,1.0,470.0,1.0,0.0,2.0,1.0
470,-0.043090791555631454,-0.5024451714361923,0.0,0.0,1.0,0.0,0.0,1.0,471.0,0.0,1.0,0.0,0.0
471,0.6355104820525699,-0.47400492578514347,0.0,0.0,1.0,0.0,0.0,1.0,472.0,0.0,1.0,0.0,0.0
472,0.25640362528821153,-0.08968408411123653,0.0,0.0,1.0,0.0,1.0,0.0,473.0,1.0,0.0,1.0,2.0
473,-0.5018100882405051,-0.3707300882677209,1.0,0.0,0.0,0.0,1.0,0.0,474.0,1.0,0.0,0.0,0.0
474,-0.5776314595933767,-0.45034666834090825,0.0,0.0,1.0,0.0,0.0,1.0,475.0,0.0,0.0,0.0,0.0
475,1.0601101616286512,0.39858208016340624,0.0,0.0,1.0,1.0,0.0,0.0,476.0,0.0,1.0,0.0,0.0
476,0.33222499664108324,-0.22559322262067316,0.0,0.0,1.0,0.0,1.0,0.0,477.0,0.0,1.0,1.0,0.0
477,-0.04688186012327509,-0.5065566745596926,0.0,0.0,1.0,0.0,0.0,1.0,478.0,0.0,1.0,1.0,0.0
478,-0.5776314595933767,-0.4969926981460655,0.0,0.0,1.0,0.0,0.0,1.0,479.0,0.0,1.0,0.0,0.0
479,-2.09405888665081,-0.4010166847337793,0.0,0.0,1.0,0.0,0.0,1.0,480.0,1.0,0.0,0.0,1.0
480,-1.5633092871807084,0.2958951755118318,0.0,0.0,1.0,0.0,0.0,1.0,481.0,0.0,1.0,5.0,2.0
481,0.48386773934682653,-0.6484216535389205,0.0,0.0,1.0,0.0,1.0,0.0,482.0,0.0,1.0,0.0,0.0
482,1.5453669382870299,-0.4863374216869257,0.0,0.0,1.0,0.0,0.0,1.0,483.0,0.0,1.0,0.0,0.0
483,2.531044765874362,-0.455380340137554,0.0,0.0,1.0,0.0,0.0,1.0,484.0,1.0,0.0,0.0,0.0
484,-0.35016734553476175,1.1854295476653287,1.0,0.0,0.0,1.0,0.0,0.0,485.0,1.0,1.0,1.0,0.0
485,0.044103785500170856,-0.13565761536436197,0.0,0.0,1.0,0.0,0.0,1.0,486.0,0.0,0.0,3.0,1.0
486,0.4080463679939549,1.163700193253568,0.0,0.0,1.0,1.0,0.0,0.0,487.0,1.0,0.0,1.0,0.0
487,2.151937909110003,-0.05042144409739929,1.0,0.0,0.0,1.0,0.0,0.0,488.0,0.0,1.0,0.0,0.0
488,0.028939511229596572,-0.4863374216869257,0.0,0.0,1.0,0.0,0.0,1.0,489.0,0.0,1.0,0.0,0.0
489,-1.5633092871807084,-0.32828012727224753,0.0,0.0,1.0,0.0,0.0,1.0,490.0,1.0,1.0,1.0,1.0
490,-0.44115299115820766,-0.2463983948905696,0.0,0.0,1.0,0.0,0.0,1.0,491.0,0.0,1.0,1.0,0.0
491,-0.6534528309462484,-0.5024451714361923,0.0,0.0,1.0,0.0,0.0,1.0,492.0,0.0,1.0,0.0,0.0
492,1.9244737950513882,-0.034313694348132716,0.0,0.0,1.0,1.0,0.0,0.0,493.0,0.0,1.0,0.0,0.0
493,3.137615736697335,0.3483299278831318,1.0,0.0,0.0,1.0,0.0,0.0,494.0,0.0,1.0,0.0,0.0
494,-0.6534528309462484,-0.4863374216869257,0.0,0.0,1.0,0.0,0.0,1.0,495.0,0.0,1.0,0.0,0.0
495,-0.5573871534421597,-0.3573083057891445,1.0,0.0,0.0,0.0,0.0,1.0,496.0,0.0,1.0,0.0,0.0
496,1.8486524236985165,0.9274538680872313,1.0,0.0,0.0,1.0,0.0,0.0,497.0,1.0,0.0,1.0,0.0
497,-0.27684807943653467,-0.3443878770215141,0.0,0.0,1.0,0.0,0.0,1.0,498.0,0.0,1.0,0.0,0.0
498,-0.35016734553476175,2.4029901895877646,0.0,0.0,1.0,1.0,0.0,0.0,499.0,0.0,0.0,1.0,2.0
499,-0.4259887168876334,-0.49145565916975514,0.0,0.0,1.0,0.0,0.0,1.0,500.0,0.0,1.0,0.0,0.0
500,-0.956738316357735,-0.47400492578514347,0.0,0.0,1.0,0.0,0.0,1.0,501.0,0.0,1.0,0.0,0.0
501,-0.6534528309462484,-0.49237782784290063,0.0,1.0,0.0,0.0,0.0,1.0,502.0,0.0,0.0,0.0,0.0
502,-0.30467452272303863,-0.4948100980550399,0.0,1.0,0.0,0.0,0.0,1.0,503.0,0.0,0.0,0.0,0.0
503,0.5596891106996982,-0.455380340137554,0.0,0.0,1.0,0.0,0.0,1.0,504.0,0.0,0.0,0.0,0.0
504,-1.0325596877106067,1.093228788100527,0.0,0.0,1.0,1.0,0.0,0.0,505.0,1.0,0.0,0.0,0.0
505,-0.8809169450048634,1.5442457810799908,1.0,0.0,0.0,1.0,0.0,0.0,506.0,0.0,1.0,1.0,0.0
506,0.25640362528821153,-0.12491978668775715,0.0,0.0,1.0,0.0,1.0,0.0,507.0,1.0,0.0,0.0,2.0
507,1.5226205268811686,-0.11384570873513637,0.0,0.0,1.0,1.0,0.0,0.0,508.0,1.0,1.0,0.0,0.0
508,-0.12270323147614676,-0.1948878246611338,0.0,0.0,1.0,0.0,0.0,1.0,509.0,0.0,1.0,0.0,0.0
509,-0.27434597418189005,0.48910360681684706,0.0,0.0,1.0,0.0,0.0,1.0,510.0,1.0,1.0,0.0,0.0
510,-0.04688186012327509,-0.49237782784290063,0.0,1.0,0.0,0.0,0.0,1.0,511.0,1.0,1.0,0.0,0.0
511,-0.10753895720557247,-0.4863374216869257,0.0,0.0,1.0,0.0,0.0,1.0,512.0,0.0,1.0,0.0,0.0
512,0.48386773934682653,-0.11913106412161445,0.0,0.0,1.0,1.0,0.0,0.0,513.0,1.0,1.0,0.0,0.0
513,1.8486524236985165,0.5475787653441219,1.0,0.0,0.0,1.0,0.0,0.0,514.0,1.0,0.0,1.0,0.0
514,-0.4259887168876334,-0.4974960653257301,0.0,0.0,1.0,0.0,0.0,1.0,515.0,0.0,1.0,0.0,0.0
515,1.3179028242284148,0.036576512298389464,0.0,0.0,1.0,1.0,0.0,0.0,516.0,0.0,1.0,0.0,0.0
516,0.33222499664108324,-0.43700743807979686,0.0,0.0,1.0,0.0,1.0,0.0,517.0,1.0,0.0,0.0,0.0
517,-0.17577819142315687,-0.1621689579829361,0.0,1.0,0.0,0.0,0.0,1.0,518.0,0.0,1.0,0.0,0.0
518,0.48386773934682653,-0.12491978668775715,0.0,0.0,1.0,0.0,1.0,0.0,519.0,1.0,0.0,1.0,0.0
519,0.1805822539353399,-0.4894421904510968,0.0,0.0,1.0,0.0,0.0,1.0,520.0,0.0,1.0,0.0,0.0
520,0.028939511229596572,1.2341715984066093,0.0,0.0,1.0,1.0,0.0,0.0,521.0,1.0,0.0,0.0,0.0
521,-0.5776314595933767,-0.4894421904510968,0.0,0.0,1.0,0.0,0.0,1.0,522.0,0.0,1.0,0.0,0.0
522,-0.293301317020108,-0.5029485386158568,1.0,0.0,0.0,0.0,0.0,1.0,523.0,0.0,1.0,0.0,0.0
523,1.0904387101697999,0.5189714017894245,1.0,0.0,0.0,1.0,0.0,0.0,524.0,1.0,0.0,0.0,1.0
524,-0.31604772842596957,-0.5028639729296732,1.0,0.0,0.0,0.0,0.0,1.0,525.0,0.0,1.0,0.0,0.0
525,0.825063910434749,-0.49237782784290063,0.0,1.0,0.0,0.0,0.0,1.0,526.0,0.0,1.0,0.0,0.0
526,1.5453669382870299,-0.43700743807979686,0.0,0.0,1.0,0.0,1.0,0.0,527.0,1.0,0.0,0.0,0.0
527,0.05926805977074513,3.817033162951754,0.0,0.0,1.0,1.0,0.0,0.0,528.0,0.0,1.0,0.0,0.0
528,0.7113318534054416,-0.4888542575852486,0.0,0.0,1.0,0.0,0.0,1.0,529.0,0.0,1.0,0.0,0.0
529,-0.5018100882405051,-0.41687275089321363,0.0,0.0,1.0,0.0,1.0,0.0,530.0,0.0,1.0,2.0,1.0
530,-2.09405888665081,-0.12491978668775715,0.0,0.0,1.0,0.0,1.0,0.0,531.0,1.0,0.0,1.0,1.0
531,-0.31604772842596957,-0.5028639729296732,1.0,0.0,0.0,0.0,0.0,1.0,532.0,0.0,1.0,0.0,0.0
532,-0.956738316357735,-0.5028639729296732,1.0,0.0,0.0,0.0,0.0,1.0,533.0,0.0,1.0,1.0,1.0
533,-0.8505883964637149,-0.19824427701513722,1.0,0.0,0.0,0.0,0.0,1.0,534.0,1.0,0.0,0.0,2.0
534,0.028939511229596572,-0.47400492578514347,0.0,0.0,1.0,0.0,0.0,1.0,535.0,0.0,0.0,0.0,0.0
535,-1.7149520298864516,-0.11988611489111134,0.0,0.0,1.0,0.0,1.0,0.0,536.0,1.0,0.0,0.0,2.0
536,1.1662600815226716,-0.11384570873513637,0.0,0.0,1.0,1.0,0.0,0.0,537.0,0.0,1.0,0.0,0.0
537,0.028939511229596572,1.4944124302931971,1.0,0.0,0.0,1.0,0.0,0.0,538.0,1.0,0.0,0.0,0.0
538,-0.4701925763863575,-0.35646868933346404,0.0,0.0,1.0,0.0,0.0,1.0,539.0,0.0,1.0,0.0,0.0
539,-0.5776314595933767,0.3482453621969482,1.0,0.0,0.0,1.0,0.0,0.0,540.0,1.0,0.0,0.0,2.0
540,0.48386773934682653,0.7811411367084872,0.0,0.0,1.0,1.0,0.0,0.0,541.0,1.0,0.0,0.0,2.0
541,-1.5633092871807084,-0.01870931177853076,0.0,0.0,1.0,0.0,0.0,1.0,542.0,0.0,0.0,4.0,2.0
542,-1.411666544474965,-0.01870931177853076,0.0,0.0,1.0,0.0,0.0,1.0,543.0,0.0,0.0,4.0,2.0
543,0.1805822539353399,-0.12491978668775715,0.0,0.0,1.0,0.0,1.0,0.0,544.0,1.0,1.0,1.0,0.0
544,1.5453669382870299,1.4944124302931971,1.0,0.0,0.0,1.0,0.0,0.0,545.0,0.0,1.0,1.0,0.0
545,2.6068661372272333,-0.12491978668775715,0.0,0.0,1.0,1.0,0.0,0.0,546.0,0.0,1.0,0.0,0.0
546,-0.8050955736519917,-0.12491978668775715,0.0,0.0,1.0,0.0,1.0,0.0,547.0,1.0,0.0,1.0,0.0
547,0.4914498764821138,-0.3693045524149108,1.0,0.0,0.0,0.0,1.0,0.0,548.0,1.0,1.0,0.0,0.0
548,0.25640362528821153,-0.2351571990343002,0.0,0.0,1.0,0.0,0.0,1.0,549.0,0.0,1.0,1.0,1.0
549,-1.63913065853358,0.09152810056801232,0.0,0.0,1.0,0.0,1.0,0.0,550.0,1.0,1.0,1.0,1.0
550,-0.956738316357735,1.5841789061771412,1.0,0.0,0.0,1.0,0.0,0.0,551.0,1.0,1.0,0.0,2.0
551,-0.1985246028290184,-0.12491978668775715,0.0,0.0,1.0,0.0,1.0,0.0,552.0,0.0,1.0,0.0,0.0
552,-0.3425852083994745,-0.49078316061772326,0.0,1.0,0.0,0.0,0.0,1.0,553.0,0.0,1.0,0.0,0.0
553,-0.5776314595933767,-0.5029485386158568,1.0,0.0,0.0,0.0,0.0,1.0,554.0,1.0,1.0,0.0,0.0
554,-0.5776314595933767,-0.4918744606632361,0.0,0.0,1.0,0.0,0.0,1.0,555.0,1.0,0.0,0.0,0.0
555,2.45522339452149,-0.11384570873513637,0.0,0.0,1.0,1.0,0.0,0.0,556.0,0.0,1.0,0.0,0.0
556,1.3937241955812865,0.1489119590497745,1.0,0.0,0.0,1.0,0.0,0.0,557.0,1.0,0.0,1.0,0.0
557,0.05926805977074513,3.9327230485884233,1.0,0.0,0.0,1.0,0.0,0.0,558.0,0.0,1.0,0.0,0.0
558,0.7113318534054416,0.955306180872432,0.0,0.0,1.0,1.0,0.0,0.0,559.0,1.0,0.0,1.0,1.0
559,0.48386773934682653,-0.29807809649237277,0.0,0.0,1.0,0.0,0.0,1.0,560.0,1.0,0.0,1.0,0.0
560,0.006193099823735021,-0.49237782784290063,0.0,1.0,0.0,0.0,0.0,1.0,561.0,0.0,1.0,0.0,0.0
561,0.7871532247583132,-0.4894421904510968,0.0,0.0,1.0,0.0,0.0,1.0,562.0,0.0,1.0,0.0,0.0
562,-0.12270323147614676,-0.3766033765200472,0.0,0.0,1.0,0.0,1.0,0.0,563.0,0.0,1.0,0.0,0.0
563,-0.10753895720557247,-0.4863374216869257,0.0,0.0,1.0,0.0,0.0,1.0,564.0,0.0,1.0,0.0,0.0
564,-0.10753895720557247,-0.4863374216869257,0.0,0.0,1.0,0.0,0.0,1.0,565.0,0.0,0.0,0.0,0.0
565,-0.4259887168876334,-0.1621689579829361,0.0,0.0,1.0,0.0,0.0,1.0,566.0,0.0,1.0,2.0,0.0
566,-0.8050955736519917,-0.4894421904510968,0.0,0.0,1.0,0.0,0.0,1.0,567.0,0.0,1.0,0.0,0.0
567,-0.04688186012327509,-0.22408312108167944,0.0,0.0,1.0,0.0,0.0,1.0,568.0,0.0,0.0,0.0,4.0
568,-0.31604772842596957,-0.5028639729296732,1.0,0.0,0.0,0.0,0.0,1.0,569.0,0.0,1.0,0.0,0.0
569,0.1805822539353399,-0.4902797934380587,0.0,0.0,1.0,0.0,0.0,1.0,570.0,1.0,1.0,0.0,0.0
570,2.45522339452149,-0.43700743807979686,0.0,0.0,1.0,0.0,1.0,0.0,571.0,1.0,1.0,0.0,0.0
571,1.7728310523456448,0.38809593507663365,0.0,0.0,1.0,1.0,0.0,0.0,572.0,1.0,0.0,2.0,0.0
572,0.48386773934682653,-0.11711759540295616,0.0,0.0,1.0,1.0,0.0,0.0,573.0,1.0,1.0,0.0,0.0
573,0.006193099823735021,-0.49237782784290063,0.0,1.0,0.0,0.0,0.0,1.0,574.0,1.0,0.0,0.0,0.0
574,-1.0325596877106067,-0.4863374216869257,0.0,0.0,1.0,0.0,0.0,1.0,575.0,0.0,1.0,0.0,0.0
575,-0.8050955736519917,-0.35646868933346404,0.0,0.0,1.0,0.0,0.0,1.0,576.0,0.0,1.0,0.0,0.0
576,0.33222499664108324,-0.3866707201133388,0.0,0.0,1.0,0.0,1.0,0.0,577.0,1.0,0.0,0.0,0.0
577,0.7113318534054416,0.4771073601910807,0.0,0.0,1.0,1.0,0.0,0.0,578.0,1.0,0.0,1.0,0.0
578,-0.5573871534421597,-0.3573083057891445,1.0,0.0,0.0,0.0,0.0,1.0,579.0,0.0,0.0,1.0,0.0
579,0.1805822539353399,-0.4888542575852486,0.0,0.0,1.0,0.0,0.0,1.0,580.0,1.0,1.0,0.0,0.0
580,-0.35016734553476175,-0.04438103794142432,0.0,0.0,1.0,0.0,1.0,0.0,581.0,1.0,0.0,1.0,1.0
581,0.7113318534054416,1.5841789061771412,1.0,0.0,0.0,1.0,0.0,0.0,582.0,1.0,0.0,1.0,1.0
582,1.8486524236985165,-0.12491978668775715,0.0,0.0,1.0,0.0,1.0,0.0,583.0,0.0,1.0,0.0,0.0
583,0.48386773934682653,0.15948266982273065,1.0,0.0,0.0,1.0,0.0,0.0,584.0,0.0,1.0,0.0,0.0
584,-0.5321386367816536,-0.47299819142581434,1.0,0.0,0.0,0.0,0.0,1.0,585.0,0.0,1.0,0.0,0.0
585,-0.8809169450048634,0.955306180872432,0.0,0.0,1.0,1.0,0.0,0.0,586.0,1.0,0.0,0.0,2.0
586,1.3179028242284148,-0.3464013457401724,0.0,0.0,1.0,0.0,1.0,0.0,587.0,0.0,1.0,0.0,0.0
587,2.3035806518157464,0.9462455716384695,1.0,0.0,0.0,1.0,0.0,0.0,588.0,1.0,1.0,1.0,1.0
588,-0.5776314595933767,-0.4863374216869257,0.0,0.0,1.0,0.0,0.0,1.0,589.0,0.0,1.0,0.0,0.0
589,-0.10753895720557247,-0.4863374216869257,0.0,0.0,1.0,0.0,0.0,1.0,590.0,0.0,1.0,0.0,0.0
590,0.4080463679939549,-0.5049620073345151,0.0,0.0,1.0,0.0,0.0,1.0,591.0,0.0,1.0,0.0,0.0
591,1.697009680992773,0.9274538680872313,1.0,0.0,0.0,1.0,0.0,0.0,592.0,1.0,0.0,1.0,0.0
592,1.3179028242284148,-0.5024451714361923,0.0,0.0,1.0,0.0,0.0,1.0,593.0,0.0,1.0,0.0,0.0
593,0.006193099823735021,-0.49237782784290063,0.0,1.0,0.0,0.0,0.0,1.0,594.0,0.0,0.0,0.0,2.0
594,0.5596891106996982,-0.12491978668775715,0.0,0.0,1.0,0.0,1.0,0.0,595.0,0.0,1.0,1.0,0.0
595,0.48386773934682653,-0.1621689579829361,0.0,0.0,1.0,0.0,0.0,1.0,596.0,0.0,1.0,1.0,1.0
596,0.26398576242349886,0.016023023618325298,0.0,0.0,1.0,0.0,1.0,0.0,597.0,1.0,0.0,0.0,0.0
597,1.4695455669341582,-0.6484216535389205,0.0,0.0,1.0,0.0,0.0,1.0,598.0,0.0,1.0,0.0,0.0
598,-0.293301317020108,-0.5029485386158568,1.0,0.0,0.0,0.0,0.0,1.0,599.0,0.0,1.0,0.0,0.0
599,1.4695455669341582,0.49782998024351216,1.0,0.0,0.0,1.0,0.0,0.0,600.0,1.0,1.0,1.0,0.0
600,-0.4259887168876334,-0.10478509950117394,0.0,0.0,1.0,0.0,1.0,0.0,601.0,1.0,0.0,2.0,1.0
601,-0.22885315137016696,-0.4894421904510968,0.0,0.0,1.0,0.0,0.0,1.0,602.0,0.0,1.0,0.0,0.0
602,-0.9794847277635966,0.2052890831722074,0.0,0.0,1.0,1.0,0.0,0.0,603.0,0.0,1.0,0.0,0.0
603,1.0904387101697999,-0.4863374216869257,0.0,0.0,1.0,0.0,0.0,1.0,604.0,0.0,1.0,0.0,0.0
604,0.4080463679939549,-0.11384570873513637,1.0,0.0,0.0,1.0,0.0,0.0,605.0,1.0,1.0,0.0,0.0
605,0.48386773934682653,-0.3353272677875516,0.0,0.0,1.0,0.0,0.0,1.0,606.0,0.0,1.0,1.0,0.0
606,0.028939511229596572,-0.4894421904510968,0.0,0.0,1.0,0.0,0.0,1.0,607.0,0.0,1.0,0.0,0.0
607,-0.1985246028290184,-0.034313694348132716,0.0,0.0,1.0,1.0,0.0,0.0,608.0,1.0,1.0,0.0,0.0
608,-0.5776314595933767,0.18876253192945994,1.0,0.0,0.0,0.0,1.0,0.0,609.0,1.0,0.0,1.0,2.0
609,0.7871532247583132,2.441497778832105,0.0,0.0,1.0,1.0,0.0,0.0,610.0,1.0,0.0,0.0,0.0
610,0.7113318534054416,-0.01870931177853076,0.0,0.0,1.0,0.0,0.0,1.0,611.0,0.0,0.0,1.0,5.0
611,0.0668501969060324,-0.5064721088735089,0.0,0.0,1.0,0.0,0.0,1.0,612.0,0.0,1.0,0.0,0.0
612,-0.2515995627760285,-0.3363340021468808,0.0,1.0,0.0,0.0,0.0,1.0,613.0,1.0,0.0,1.0,0.0
613,0.006193099823735021,-0.49237782784290063,0.0,1.0,0.0,0.0,0.0,1.0,614.0,0.0,1.0,0.0,0.0
614,0.4080463679939549,-0.4863374216869257,0.0,0.0,1.0,0.0,0.0,1.0,615.0,0.0,1.0,0.0,0.0
615,-0.4259887168876334,0.6603330135889879,0.0,0.0,1.0,0.0,1.0,0.0,616.0,1.0,0.0,1.0,2.0
616,0.33222499664108324,-0.35848215805212236,0.0,0.0,1.0,0.0,0.0,1.0,617.0,0.0,1.0,1.0,1.0
617,-0.27434597418189005,-0.32425318983493084,0.0,0.0,1.0,0.0,0.0,1.0,618.0,0.0,0.0,1.0,0.0
618,-1.9424161439450667,0.13683114673782454,0.0,0.0,1.0,0.0,1.0,0.0,619.0,1.0,0.0,2.0,1.0
619,-0.27434597418189005,-0.43700743807979686,0.0,0.0,1.0,0.0,1.0,0.0,620.0,0.0,1.0,0.0,0.0
620,-0.1985246028290184,-0.3573908580066095,1.0,0.0,0.0,0.0,0.0,1.0,621.0,0.0,1.0,1.0,0.0
621,0.9387959674640565,0.40974072380221066,0.0,0.0,1.0,1.0,0.0,0.0,622.0,1.0,1.0,1.0,0.0
622,-0.7292742022991201,-0.33146744825388363,1.0,0.0,0.0,0.0,0.0,1.0,623.0,1.0,1.0,1.0,1.0
623,-0.6534528309462484,-0.4902797934380587,0.0,0.0,1.0,0.0,0.0,1.0,624.0,0.0,1.0,0.0,0.0
624,-0.6534528309462484,-0.32425318983493084,0.0,0.0,1.0,0.0,0.0,1.0,625.0,0.0,1.0,0.0,0.0
625,2.379402023168618,0.002347544081197954,0.0,0.0,1.0,1.0,0.0,0.0,626.0,0.0,1.0,0.0,0.0
626,2.0761165377571316,-0.3997582667846179,0.0,1.0,0.0,0.0,1.0,0.0,627.0,0.0,1.0,0.0,0.0
627,-0.6534528309462484,0.921244330558889,0.0,0.0,1.0,1.0,0.0,0.0,628.0,1.0,0.0,0.0,0.0
628,-0.27434597418189005,-0.4894421904510968,0.0,0.0,1.0,0.0,0.0,1.0,629.0,0.0,1.0,0.0,0.0
629,-0.18715139712608778,-0.49271407711891657,0.0,1.0,0.0,0.0,0.0,1.0,630.0,0.0,1.0,0.0,0.0
630,3.82000807887318,-0.04438103794142432,0.0,0.0,1.0,1.0,0.0,0.0,631.0,1.0,1.0,0.0,0.0
631,1.6211883096399016,-0.5063875431873253,0.0,0.0,1.0,0.0,0.0,1.0,632.0,0.0,1.0,0.0,0.0
632,0.1805822539353399,-0.034313694348132716,1.0,0.0,0.0,1.0,0.0,0.0,633.0,1.0,1.0,0.0,0.0
633,0.48386773934682653,-0.6484216535389205,0.0,0.0,1.0,1.0,0.0,0.0,634.0,0.0,1.0,0.0,0.0
634,-1.5633092871807084,-0.08666388103324908,0.0,0.0,1.0,0.0,0.0,1.0,635.0,0.0,0.0,3.0,2.0
635,-0.12270323147614676,-0.3866707201133388,0.0,0.0,1.0,0.0,1.0,0.0,636.0,1.0,0.0,0.0,0.0
636,0.1805822539353399,-0.4888542575852486,0.0,0.0,1.0,0.0,0.0,1.0,637.0,0.0,1.0,0.0,0.0
637,0.10476088258246824,-0.11988611489111134,0.0,0.0,1.0,0.0,1.0,0.0,638.0,0.0,1.0,1.0,1.0
638,0.8629745961111849,0.1506737441786005,0.0,0.0,1.0,0.0,0.0,1.0,639.0,0.0,0.0,0.0,5.0
639,-0.17198712285551324,-0.32425318983493084,0.0,0.0,1.0,0.0,0.0,1.0,640.0,0.0,1.0,1.0,0.0
640,-0.7292742022991201,-0.4902797934380587,0.0,0.0,1.0,0.0,0.0,1.0,641.0,0.0,1.0,0.0,0.0
641,-0.4259887168876334,0.7469121684912956,1.0,0.0,0.0,1.0,0.0,0.0,642.0,1.0,0.0,0.0,0.0
642,-2.09405888665081,-0.08666388103324908,0.0,0.0,1.0,0.0,0.0,1.0,643.0,0.0,0.0,3.0,2.0
643,0.2867321738293601,0.48910360681684706,0.0,0.0,1.0,0.0,0.0,1.0,644.0,1.0,1.0,0.0,0.0
644,-2.1888356008418994,-0.26066180729354516,1.0,0.0,0.0,0.0,0.0,1.0,645.0,1.0,0.0,2.0,1.0
645,1.3937241955812865,0.8964967865378598,1.0,0.0,0.0,1.0,0.0,0.0,646.0,1.0,1.0,1.0,0.0
646,-0.8050955736519917,-0.4894421904510968,0.0,0.0,1.0,0.0,0.0,1.0,647.0,0.0,1.0,0.0,0.0
647,2.0002951664042596,0.06635974158478332,1.0,0.0,0.0,1.0,0.0,0.0,648.0,1.0,1.0,0.0,0.0
648,-0.18336032855844414,-0.49640476528021726,0.0,0.0,1.0,0.0,0.0,1.0,649.0,0.0,1.0,0.0,0.0
649,-0.5018100882405051,-0.49640476528021726,0.0,0.0,1.0,0.0,0.0,1.0,650.0,1.0,0.0,0.0,0.0
650,-0.22885315137016696,-0.4894421904510968,0.0,0.0,1.0,0.0,0.0,1.0,651.0,0.0,1.0,0.0,0.0
651,-0.8809169450048634,-0.18532384824750675,0.0,0.0,1.0,0.0,1.0,0.0,652.0,1.0,0.0,0.0,1.0
652,-0.6534528309462484,-0.47861979608830835,0.0,0.0,1.0,0.0,0.0,1.0,653.0,0.0,1.0,0.0,0.0
653,-0.3425852083994745,-0.49078316061772326,0.0,1.0,0.0,0.0,0.0,1.0,654.0,1.0,0.0,0.0,0.0
654,-0.8809169450048634,-0.5125125150294839,0.0,1.0,0.0,0.0,0.0,1.0,655.0,0.0,0.0,0.0,0.0
655,-0.4259887168876334,0.8314778546749452,0.0,0.0,1.0,0.0,1.0,0.0,656.0,0.0,1.0,2.0,0.0
656,-0.22885315137016696,-0.4894421904510968,0.0,0.0,1.0,0.0,0.0,1.0,657.0,0.0,1.0,0.0,0.0
657,0.1805822539353399,-0.3363340021468808,0.0,1.0,0.0,0.0,0.0,1.0,658.0,0.0,0.0,1.0,1.0
658,-0.5018100882405051,-0.3866707201133388,0.0,0.0,1.0,0.0,1.0,0.0,659.0,0.0,1.0,0.0,0.0
659,2.151937909110003,1.6323350375212924,1.0,0.0,0.0,1.0,0.0,0.0,660.0,0.0,1.0,0.0,2.0
660,1.5453669382870299,2.042579288947925,0.0,0.0,1.0,1.0,0.0,0.0,661.0,1.0,1.0,2.0,0.0
661,0.7871532247583132,-0.5029485386158568,1.0,0.0,0.0,0.0,0.0,1.0,662.0,0.0,1.0,0.0,0.0
662,1.3179028242284148,-0.13322534515222276,0.0,0.0,1.0,1.0,0.0,0.0,663.0,0.0,1.0,0.0,0.0
663,0.48386773934682653,-0.4974960653257301,0.0,0.0,1.0,0.0,0.0,1.0,664.0,0.0,1.0,0.0,0.0
664,-0.7292742022991201,-0.4888542575852486,0.0,0.0,1.0,0.0,0.0,1.0,665.0,1.0,1.0,1.0,0.0
665,0.1805822539353399,0.8314778546749452,0.0,0.0,1.0,0.0,1.0,0.0,666.0,0.0,1.0,2.0,0.0
666,-0.35016734553476175,-0.3866707201133388,0.0,0.0,1.0,0.0,1.0,0.0,667.0,0.0,1.0,0.0,0.0
667,-0.4866458139699308,-0.4918744606632361,0.0,0.0,1.0,0.0,0.0,1.0,668.0,0.0,1.0,0.0,0.0
668,1.0146173388169282,-0.4863374216869257,0.0,0.0,1.0,0.0,0.0,1.0,669.0,0.0,1.0,0.0,0.0
669,1.0601101616286512,0.39858208016340624,0.0,0.0,1.0,1.0,0.0,0.0,670.0,1.0,0.0,1.0,0.0
670,0.7871532247583132,0.13683114673782454,0.0,0.0,1.0,0.0,1.0,0.0,671.0,1.0,0.0,1.0,1.0
671,0.10476088258246824,0.39858208016340624,0.0,0.0,1.0,1.0,0.0,0.0,672.0,0.0,1.0,1.0,0.0
672,3.0617943653444635,-0.43700743807979686,0.0,0.0,1.0,0.0,1.0,0.0,673.0,0.0,1.0,0.0,0.0
673,0.10476088258246824,-0.3866707201133388,0.0,0.0,1.0,0.0,1.0,0.0,674.0,1.0,1.0,0.0,0.0
674,0.48386773934682653,-0.6484216535389205,0.0,0.0,1.0,0.0,1.0,0.0,675.0,0.0,1.0,0.0,0.0
675,-0.8809169450048634,-0.4918744606632361,0.0,0.0,1.0,0.0,0.0,1.0,676.0,0.0,1.0,0.0,0.0
676,-0.38807803121119755,-0.4863374216869257,0.0,0.0,1.0,0.0,0.0,1.0,677.0,0.0,1.0,0.0,0.0
677,-0.8809169450048634,-0.45026210265472455,0.0,0.0,1.0,0.0,0.0,1.0,678.0,1.0,0.0,0.0,0.0
678,1.0146173388169282,0.2958951755118318,0.0,0.0,1.0,0.0,0.0,1.0,679.0,0.0,0.0,1.0,6.0
679,0.48386773934682653,9.667166525013505,1.0,0.0,0.0,1.0,0.0,0.0,680.0,1.0,1.0,0.0,1.0
680,0.48386773934682653,-0.48457563655809965,0.0,1.0,0.0,0.0,0.0,1.0,681.0,0.0,0.0,0.0,0.0
681,-0.1985246028290184,0.8964967865378598,1.0,0.0,0.0,1.0,0.0,0.0,682.0,1.0,1.0,0.0,0.0
682,-0.7292742022991201,-0.4626791642426904,0.0,0.0,1.0,0.0,0.0,1.0,683.0,0.0,1.0,0.0,0.0
683,-1.18420243041635,0.2958951755118318,0.0,0.0,1.0,0.0,0.0,1.0,684.0,0.0,1.0,5.0,2.0
684,2.3035806518157464,0.13683114673782454,0.0,0.0,1.0,0.0,1.0,0.0,685.0,0.0,1.0,1.0,1.0
685,-0.35016734553476175,0.18876253192945994,1.0,0.0,0.0,0.0,1.0,0.0,686.0,0.0,1.0,1.0,2.0
686,-1.18420243041635,0.1506737441786005,0.0,0.0,1.0,0.0,0.0,1.0,687.0,0.0,1.0,4.0,1.0
687,-0.8050955736519917,-0.44363577710162005,0.0,0.0,1.0,0.0,0.0,1.0,688.0,0.0,1.0,0.0,0.0
688,-0.8809169450048634,-0.49145565916975514,0.0,0.0,1.0,0.0,0.0,1.0,689.0,0.0,1.0,0.0,0.0
689,-1.1083810590634784,3.6067927997556075,0.0,0.0,1.0,1.0,0.0,0.0,690.0,1.0,0.0,0.0,1.0
690,0.10476088258246824,0.49925551609632224,0.0,0.0,1.0,1.0,0.0,0.0,691.0,1.0,1.0,1.0,0.0
691,-1.9424161439450667,-0.37828059596268965,1.0,0.0,0.0,0.0,0.0,1.0,692.0,1.0,0.0,0.0,1.0
692,0.2867321738293601,0.48910360681684706,0.0,0.0,1.0,0.0,0.0,1.0,693.0,1.0,1.0,0.0,0.0
693,-0.35016734553476175,-0.5029485386158568,1.0,0.0,0.0,0.0,0.0,1.0,694.0,0.0,1.0,0.0,0.0
694,2.3035806518157464,-0.11384570873513637,0.0,0.0,1.0,1.0,0.0,0.0,695.0,0.0,1.0,0.0,0.0
695,1.697009680992773,-0.3766033765200472,0.0,0.0,1.0,0.0,1.0,0.0,696.0,0.0,1.0,0.0,0.0
696,1.0904387101697999,-0.4863374216869257,0.0,0.0,1.0,0.0,0.0,1.0,697.0,0.0,1.0,0.0,0.0
697,-0.18715139712608778,-0.49271407711891657,0.0,1.0,0.0,0.0,0.0,1.0,698.0,1.0,0.0,0.0,0.0
698,1.4695455669341582,1.5841789061771412,1.0,0.0,0.0,1.0,0.0,0.0,699.0,0.0,1.0,1.0,1.0
699,0.9387959674640565,-0.494391296561559,0.0,0.0,1.0,0.0,0.0,1.0,700.0,0.0,1.0,0.0,0.0
700,-0.8809169450048634,3.9327230485884233,1.0,0.0,0.0,1.0,0.0,0.0,701.0,1.0,0.0,1.0,0.0
701,0.4080463679939549,-0.11913106412161445,0.0,0.0,1.0,1.0,0.0,0.0,702.0,1.0,1.0,0.0,0.0
702,-0.8809169450048634,-0.3573908580066095,1.0,0.0,0.0,0.0,0.0,1.0,703.0,0.0,0.0,0.0,1.0
703,-0.35016734553476175,-0.4925449457465493,0.0,1.0,0.0,0.0,0.0,1.0,704.0,0.0,1.0,0.0,0.0
704,-0.27434597418189005,-0.4902797934380587,0.0,0.0,1.0,0.0,0.0,1.0,705.0,0.0,1.0,1.0,0.0
705,0.7113318534054416,-0.12491978668775715,0.0,0.0,1.0,0.0,1.0,0.0,706.0,0.0,1.0,0.0,0.0
706,1.1662600815226716,-0.3766033765200472,0.0,0.0,1.0,0.0,1.0,0.0,707.0,1.0,0.0,0.0,0.0
707,0.9387959674640565,-0.11913106412161445,0.0,0.0,1.0,1.0,0.0,0.0,708.0,1.0,1.0,0.0,0.0
708,-0.5776314595933767,2.4029901895877646,0.0,0.0,1.0,1.0,0.0,0.0,709.0,1.0,0.0,0.0,0.0
709,-0.1454496428820083,-0.3414522396297103,1.0,0.0,0.0,0.0,0.0,1.0,710.0,1.0,1.0,1.0,1.0
710,-0.4259887168876334,0.3483299278831318,1.0,0.0,0.0,1.0,0.0,0.0,711.0,1.0,0.0,0.0,0.0
711,1.5226205268811686,-0.11384570873513637,0.0,0.0,1.0,1.0,0.0,0.0,712.0,0.0,1.0,0.0,0.0
712,1.3937241955812865,0.39858208016340624,0.0,0.0,1.0,1.0,0.0,0.0,713.0,1.0,1.0,1.0,0.0
713,-0.04688186012327509,-0.457478374542396,0.0,0.0,1.0,0.0,0.0,1.0,714.0,0.0,1.0,0.0,0.0
714,1.697009680992773,-0.3866707201133388,0.0,0.0,1.0,0.0,1.0,0.0,715.0,0.0,1.0,0.0,0.0
715,-0.8050955736519917,-0.494391296561559,0.0,0.0,1.0,0.0,0.0,1.0,716.0,0.0,1.0,0.0,0.0
716,0.6355104820525699,3.9327230485884233,1.0,0.0,0.0,1.0,0.0,0.0,717.0,1.0,0.0,0.0,0.0
717,-0.1985246028290184,-0.43700743807979686,0.0,0.0,1.0,0.0,1.0,0.0,718.0,1.0,0.0,0.0,0.0
718,-0.2515995627760285,-0.3363340021468808,0.0,1.0,0.0,0.0,0.0,1.0,719.0,0.0,1.0,0.0,0.0
719,0.25640362528821153,-0.4918744606632361,0.0,0.0,1.0,0.0,0.0,1.0,720.0,0.0,1.0,0.0,0.0
720,-1.7907734012393233,0.016023023618325298,0.0,0.0,1.0,0.0,1.0,0.0,721.0,1.0,0.0,0.0,1.0
721,-0.956738316357735,-0.5063875431873253,0.0,0.0,1.0,0.0,0.0,1.0,722.0,0.0,1.0,1.0,0.0
722,0.33222499664108324,-0.3866707201133388,0.0,0.0,1.0,0.0,1.0,0.0,723.0,0.0,1.0,0.0,0.0
723,1.5453669382870299,-0.3866707201133388,0.0,0.0,1.0,0.0,1.0,0.0,724.0,0.0,1.0,0.0,0.0
724,-0.1985246028290184,0.4207302360686478,0.0,0.0,1.0,1.0,0.0,0.0,725.0,1.0,1.0,1.0,0.0
725,-0.7292742022991201,-0.47400492578514347,0.0,0.0,1.0,0.0,0.0,1.0,726.0,0.0,1.0,0.0,0.0
726,0.028939511229596572,-0.22559322262067316,0.0,0.0,1.0,0.0,1.0,0.0,727.0,1.0,0.0,3.0,0.0
727,-0.19473353426137477,-0.4926295114327329,0.0,1.0,0.0,0.0,0.0,1.0,728.0,1.0,0.0,0.0,0.0
728,-0.35016734553476175,-0.12491978668775715,0.0,0.0,1.0,0.0,1.0,0.0,729.0,0.0,1.0,1.0,0.0
729,-0.35016734553476175,-0.4888542575852486,0.0,0.0,1.0,0.0,0.0,1.0,730.0,0.0,0.0,1.0,0.0
730,-0.04688186012327509,3.6067927997556075,0.0,0.0,1.0,1.0,0.0,0.0,731.0,1.0,0.0,0.0,0.0
731,-1.411666544474965,-0.2701412180209885,1.0,0.0,0.0,0.0,0.0,1.0,732.0,0.0,1.0,0.0,0.0
732,0.48386773934682653,-0.6484216535389205,0.0,0.0,1.0,0.0,1.0,0.0,733.0,0.0,1.0,0.0,0.0
733,-0.5018100882405051,-0.3866707201133388,0.0,0.0,1.0,0.0,1.0,0.0,734.0,0.0,1.0,0.0,0.0
734,-0.5018100882405051,-0.3866707201133388,0.0,0.0,1.0,0.0,1.0,0.0,735.0,0.0,1.0,0.0,0.0
735,-0.08479254579971092,-0.32425318983493084,0.0,0.0,1.0,0.0,0.0,1.0,736.0,0.0,1.0,0.0,0.0
736,1.3937241955812865,0.04370821849987721,0.0,0.0,1.0,0.0,0.0,1.0,737.0,0.0,0.0,1.0,3.0
737,0.4080463679939549,9.667166525013505,1.0,0.0,0.0,1.0,0.0,0.0,738.0,1.0,1.0,0.0,0.0
738,-0.22885315137016696,-0.4894421904510968,0.0,0.0,1.0,0.0,0.0,1.0,739.0,0.0,1.0,0.0,0.0
739,-0.22885315137016696,-0.4894421904510968,0.0,0.0,1.0,0.0,0.0,1.0,740.0,0.0,1.0,0.0,0.0
740,0.6013908649437774,-0.04438103794142432,0.0,0.0,1.0,1.0,0.0,0.0,741.0,1.0,1.0,0.0,0.0
741,0.48386773934682653,0.9391984311231651,0.0,0.0,1.0,1.0,0.0,0.0,742.0,0.0,1.0,1.0,0.0
742,-0.6534528309462484,4.634416897040849,1.0,0.0,0.0,1.0,0.0,0.0,743.0,1.0,0.0,2.0,2.0
743,-0.4259887168876334,-0.32425318983493084,0.0,0.0,1.0,0.0,0.0,1.0,744.0,0.0,1.0,1.0,0.0
744,0.10476088258246824,-0.4888542575852486,0.0,0.0,1.0,0.0,0.0,1.0,745.0,1.0,1.0,0.0,0.0
745,3.0617943653444635,0.7811411367084872,0.0,0.0,1.0,1.0,0.0,0.0,746.0,0.0,1.0,1.0,1.0
746,-1.0325596877106067,-0.24069423801061057,0.0,0.0,1.0,0.0,0.0,1.0,747.0,0.0,1.0,1.0,1.0
747,0.028939511229596572,-0.3866707201133388,0.0,0.0,1.0,0.0,1.0,0.0,748.0,1.0,0.0,0.0,0.0
748,-0.8050955736519917,0.4207302360686478,0.0,0.0,1.0,1.0,0.0,0.0,749.0,0.0,1.0,1.0,0.0
749,0.10476088258246824,-0.49237782784290063,0.0,1.0,0.0,0.0,0.0,1.0,750.0,0.0,1.0,0.0,0.0
750,-1.9424161439450667,-0.18532384824750675,0.0,0.0,1.0,0.0,1.0,0.0,751.0,1.0,0.0,1.0,1.0
751,-1.7907734012393233,-0.397241430886295,0.0,0.0,1.0,0.0,0.0,1.0,752.0,1.0,1.0,0.0,1.0
752,0.25640362528821153,-0.45714212526638004,0.0,0.0,1.0,0.0,0.0,1.0,753.0,0.0,1.0,0.0,0.0
753,-0.5018100882405051,-0.4894421904510968,0.0,0.0,1.0,0.0,0.0,1.0,754.0,0.0,1.0,0.0,0.0
754,1.3937241955812865,0.6603330135889879,0.0,0.0,1.0,0.0,1.0,0.0,755.0,1.0,0.0,1.0,2.0
755,-2.194901310550129,-0.35646868933346404,0.0,0.0,1.0,0.0,1.0,0.0,756.0,1.0,1.0,1.0,1.0
756,-0.12270323147614676,-0.49145565916975514,0.0,0.0,1.0,0.0,0.0,1.0,757.0,0.0,1.0,0.0,0.0
757,-0.8809169450048634,-0.41687275089321363,0.0,0.0,1.0,0.0,1.0,0.0,758.0,0.0,1.0,0.0,0.0
758,0.33222499664108324,-0.4863374216869257,0.0,0.0,1.0,0.0,0.0,1.0,759.0,0.0,1.0,0.0,0.0
759,0.25640362528821153,1.093228788100527,0.0,0.0,1.0,1.0,0.0,0.0,760.0,1.0,0.0,0.0,0.0
760,-0.4701925763863575,-0.35646868933346404,0.0,0.0,1.0,0.0,0.0,1.0,761.0,0.0,1.0,0.0,0.0
761,0.8629745961111849,-0.5049620073345151,0.0,0.0,1.0,0.0,0.0,1.0,762.0,0.0,1.0,0.0,0.0
762,-0.7292742022991201,-0.5028639729296732,1.0,0.0,0.0,0.0,0.0,1.0,763.0,1.0,1.0,0.0,0.0
763,0.48386773934682653,1.7677408088510642,0.0,0.0,1.0,1.0,0.0,0.0,764.0,1.0,0.0,1.0,2.0
764,-1.0325596877106067,-0.4918744606632361,0.0,0.0,1.0,0.0,0.0,1.0,765.0,0.0,1.0,0.0,0.0
765,1.6211883096399016,0.921244330558889,0.0,0.0,1.0,1.0,0.0,0.0,766.0,1.0,0.0,1.0,0.0
766,-0.41840657975234613,0.1489119590497745,1.0,0.0,0.0,1.0,0.0,0.0,767.0,0.0,1.0,0.0,0.0
767,0.0668501969060324,-0.49237782784290063,0.0,1.0,0.0,0.0,0.0,1.0,768.0,0.0,0.0,0.0,0.0
768,-0.17577819142315687,-0.1621689579829361,0.0,1.0,0.0,0.0,0.0,1.0,769.0,0.0,1.0,1.0,0.0
769,0.1805822539353399,-0.4800453319411184,0.0,0.0,1.0,0.0,0.0,1.0,770.0,0.0,1.0,0.0,0.0
770,-0.4259887168876334,-0.45714212526638004,0.0,0.0,1.0,0.0,0.0,1.0,771.0,0.0,1.0,0.0,0.0
771,1.3937241955812865,-0.4902797934380587,0.0,0.0,1.0,0.0,0.0,1.0,772.0,0.0,1.0,0.0,0.0
772,2.0761165377571316,-0.43700743807979686,0.0,0.0,1.0,0.0,1.0,0.0,773.0,0.0,0.0,0.0,0.0
773,-0.293301317020108,-0.5029485386158568,1.0,0.0,0.0,0.0,0.0,1.0,774.0,0.0,1.0,0.0,0.0
774,1.8486524236985165,-0.18532384824750675,0.0,0.0,1.0,0.0,1.0,0.0,775.0,1.0,0.0,1.0,3.0
775,-0.8809169450048634,-0.49237782784290063,0.0,0.0,1.0,0.0,0.0,1.0,776.0,0.0,1.0,0.0,0.0
776,0.006193099823735021,-0.49237782784290063,0.0,1.0,0.0,0.0,0.0,1.0,777.0,0.0,1.0,0.0,0.0
777,-1.866594772592195,-0.397241430886295,0.0,0.0,1.0,0.0,0.0,1.0,778.0,1.0,0.0,0.0,0.0
778,-0.19473353426137477,-0.4926295114327329,0.0,1.0,0.0,0.0,0.0,1.0,779.0,0.0,1.0,0.0,0.0
779,1.0146173388169282,3.6067927997556075,0.0,0.0,1.0,1.0,0.0,0.0,780.0,1.0,0.0,0.0,1.0
780,-1.2600238017692216,-0.5028639729296732,1.0,0.0,0.0,0.0,0.0,1.0,781.0,1.0,0.0,0.0,0.0
781,-0.956738316357735,0.49925551609632224,0.0,0.0,1.0,1.0,0.0,0.0,782.0,1.0,0.0,1.0,0.0
782,-0.04688186012327509,-0.04438103794142432,0.0,0.0,1.0,1.0,0.0,0.0,783.0,0.0,1.0,0.0,0.0
783,0.006193099823735021,-0.17626323901354432,0.0,0.0,1.0,0.0,0.0,1.0,784.0,0.0,1.0,1.0,2.0
784,-0.35016734553476175,-0.5064721088735089,0.0,0.0,1.0,0.0,0.0,1.0,785.0,0.0,1.0,0.0,0.0
785,-0.35016734553476175,-0.5024451714361923,0.0,0.0,1.0,0.0,0.0,1.0,786.0,0.0,1.0,0.0,0.0
786,-0.8809169450048634,-0.4974960653257301,0.0,0.0,1.0,0.0,0.0,1.0,787.0,1.0,0.0,0.0,0.0
787,-1.63913065853358,-0.06199888922968463,0.0,1.0,0.0,0.0,0.0,1.0,788.0,0.0,1.0,4.0,1.0
788,-2.1698802580036816,-0.23415046467497105,0.0,0.0,1.0,0.0,0.0,1.0,789.0,1.0,1.0,1.0,2.0
789,1.2420814528755433,0.9462455716384695,1.0,0.0,0.0,1.0,0.0,0.0,790.0,0.0,1.0,0.0,0.0
790,0.006193099823735021,-0.49237782784290063,0.0,1.0,0.0,0.0,0.0,1.0,791.0,0.0,1.0,0.0,0.0
791,-1.0325596877106067,-0.12491978668775715,0.0,0.0,1.0,0.0,1.0,0.0,792.0,0.0,1.0,0.0,0.0
792,0.07443233404131967,0.7519458402879414,0.0,0.0,1.0,0.0,0.0,1.0,793.0,0.0,0.0,8.0,2.0
793,0.6430926191878571,-0.030371322596999754,1.0,0.0,0.0,1.0,0.0,0.0,794.0,0.0,1.0,0.0,0.0
794,-0.35016734553476175,-0.4894421904510968,0.0,0.0,1.0,0.0,0.0,1.0,795.0,0.0,1.0,0.0,0.0
795,0.7113318534054416,-0.3866707201133388,0.0,0.0,1.0,0.0,1.0,0.0,796.0,0.0,1.0,0.0,0.0
796,1.4695455669341582,-0.1263453225405672,0.0,0.0,1.0,1.0,0.0,0.0,797.0,1.0,0.0,0.0,0.0
797,0.10476088258246824,-0.4735861242916626,0.0,0.0,1.0,0.0,0.0,1.0,798.0,1.0,0.0,0.0,0.0
798,0.028939511229596572,-0.5028639729296732,1.0,0.0,0.0,0.0,0.0,1.0,799.0,0.0,1.0,0.0,0.0
799,0.028939511229596572,-0.1621689579829361,0.0,0.0,1.0,0.0,0.0,1.0,800.0,0.0,0.0,1.0,1.0
800,0.33222499664108324,-0.3866707201133388,0.0,0.0,1.0,0.0,1.0,0.0,801.0,0.0,1.0,0.0,0.0
801,0.10476088258246824,-0.11988611489111134,0.0,0.0,1.0,0.0,1.0,0.0,802.0,1.0,0.0,1.0,1.0
802,-1.411666544474965,1.7677408088510642,0.0,0.0,1.0,1.0,0.0,0.0,803.0,1.0,1.0,1.0,2.0
803,-2.2138566533883473,-0.47694056317694733,1.0,0.0,0.0,0.0,0.0,1.0,804.0,1.0,1.0,0.0,1.0
804,-0.1985246028290184,-0.5079822104125026,0.0,0.0,1.0,0.0,0.0,1.0,805.0,1.0,1.0,0.0,0.0
805,0.10476088258246824,-0.4918744606632361,0.0,0.0,1.0,0.0,0.0,1.0,806.0,0.0,1.0,0.0,0.0
806,0.7113318534054416,-0.6484216535389205,0.0,0.0,1.0,1.0,0.0,0.0,807.0,0.0,1.0,0.0,0.0
807,-0.8809169450048634,-0.4918744606632361,0.0,0.0,1.0,0.0,0.0,1.0,808.0,0.0,0.0,0.0,0.0
808,0.7113318534054416,-0.3866707201133388,0.0,0.0,1.0,0.0,1.0,0.0,809.0,0.0,1.0,0.0,0.0
809,0.25640362528821153,0.4207302360686478,0.0,0.0,1.0,1.0,0.0,0.0,810.0,1.0,0.0,1.0,0.0
810,-0.27434597418189005,-0.4896093083547455,0.0,0.0,1.0,0.0,0.0,1.0,811.0,0.0,1.0,0.0,0.0
811,0.7113318534054416,-0.1621689579829361,0.0,0.0,1.0,0.0,0.0,1.0,812.0,0.0,1.0,0.0,0.0
812,0.4080463679939549,-0.43700743807979686,0.0,0.0,1.0,0.0,1.0,0.0,813.0,0.0,1.0,0.0,0.0
813,-1.7907734012393233,-0.01870931177853076,0.0,0.0,1.0,0.0,0.0,1.0,814.0,0.0,0.0,4.0,2.0
814,0.0668501969060324,-0.4863374216869257,0.0,0.0,1.0,0.0,0.0,1.0,815.0,0.0,1.0,0.0,0.0
815,0.48386773934682653,-0.6484216535389205,0.0,0.0,1.0,1.0,0.0,0.0,816.0,0.0,1.0,0.0,0.0
816,-0.5018100882405051,-0.4888542575852486,0.0,0.0,1.0,0.0,0.0,1.0,817.0,0.0,0.0,0.0,0.0
817,0.10476088258246824,0.09664633805084172,1.0,0.0,0.0,0.0,1.0,0.0,818.0,0.0,1.0,1.0,1.0
818,1.0146173388169282,-0.5185529211854588,0.0,0.0,1.0,0.0,0.0,1.0,819.0,0.0,1.0,0.0,0.0
819,-1.4874879158278367,-0.08666388103324908,0.0,0.0,1.0,0.0,0.0,1.0,820.0,0.0,1.0,3.0,2.0
820,1.697009680992773,1.2341715984066093,0.0,0.0,1.0,1.0,0.0,0.0,821.0,1.0,0.0,1.0,1.0
821,-0.1985246028290184,-0.47400492578514347,0.0,0.0,1.0,0.0,0.0,1.0,822.0,1.0,1.0,0.0,0.0
822,0.6355104820525699,-0.6484216535389205,0.0,0.0,1.0,1.0,0.0,0.0,823.0,0.0,1.0,0.0,0.0
823,-0.1985246028290184,-0.397241430886295,0.0,0.0,1.0,0.0,0.0,1.0,824.0,1.0,0.0,0.0,1.0
824,-2.09405888665081,0.1506737441786005,0.0,0.0,1.0,0.0,0.0,1.0,825.0,0.0,1.0,4.0,1.0
825,0.17300011680005262,-0.5084855775921673,0.0,1.0,0.0,0.0,0.0,1.0,826.0,0.0,1.0,0.0,0.0
826,0.2867321738293601,0.48910360681684706,0.0,0.0,1.0,0.0,0.0,1.0,827.0,0.0,1.0,0.0,0.0
827,-2.1698802580036816,0.09664633805084172,1.0,0.0,0.0,0.0,1.0,0.0,828.0,1.0,1.0,0.0,2.0
828,0.006193099823735021,-0.49237782784290063,0.0,1.0,0.0,0.0,0.0,1.0,829.0,1.0,1.0,0.0,0.0
829,2.45522339452149,0.962353321387736,0.0,0.0,1.0,1.0,0.0,0.0,830.0,1.0,0.0,0.0,0.0
830,-1.1083810590634784,-0.3573908580066095,1.0,0.0,0.0,0.0,0.0,1.0,831.0,1.0,0.0,1.0,0.0
831,-2.18276989113367,-0.2708962687904854,0.0,0.0,1.0,0.0,1.0,0.0,832.0,1.0,1.0,1.0,1.0
832,-0.31604772842596957,-0.5028639729296732,1.0,0.0,0.0,0.0,0.0,1.0,833.0,0.0,1.0,0.0,0.0
833,-0.5018100882405051,-0.4902797934380587,0.0,0.0,1.0,0.0,0.0,1.0,834.0,0.0,1.0,0.0,0.0
834,-0.8809169450048634,-0.48130374989027985,0.0,0.0,1.0,0.0,0.0,1.0,835.0,0.0,1.0,0.0,0.0
835,0.7113318534054416,1.0259447039291216,1.0,0.0,0.0,1.0,0.0,0.0,836.0,1.0,0.0,1.0,1.0
836,-0.6534528309462484,-0.47400492578514347,0.0,0.0,1.0,0.0,0.0,1.0,837.0,0.0,1.0,0.0,0.0
837,-0.10753895720557247,-0.4863374216869257,0.0,0.0,1.0,0.0,0.0,1.0,838.0,0.0,1.0,0.0,0.0
838,0.1805822539353399,0.48910360681684706,0.0,0.0,1.0,0.0,0.0,1.0,839.0,1.0,1.0,0.0,0.0
839,0.21470187104413235,-0.05042144409739929,1.0,0.0,0.0,1.0,0.0,0.0,840.0,1.0,1.0,0.0,0.0
840,-0.7292742022991201,-0.4888542575852486,0.0,0.0,1.0,0.0,0.0,1.0,841.0,0.0,1.0,0.0,0.0
841,-1.0325596877106067,-0.43700743807979686,0.0,0.0,1.0,0.0,1.0,0.0,842.0,0.0,1.0,0.0,0.0
842,0.028939511229596572,-0.024246350754841113,1.0,0.0,0.0,1.0,0.0,0.0,843.0,1.0,0.0,0.0,0.0
843,0.37013568231751903,-0.5188046047752911,1.0,0.0,0.0,0.0,0.0,1.0,844.0,0.0,1.0,0.0,0.0
844,-0.956738316357735,-0.47400492578514347,0.0,0.0,1.0,0.0,0.0,1.0,845.0,0.0,1.0,0.0,0.0
845,0.9387959674640565,-0.49640476528021726,0.0,0.0,1.0,0.0,0.0,1.0,846.0,0.0,1.0,0.0,0.0
846,0.07443233404131967,0.7519458402879414,0.0,0.0,1.0,0.0,0.0,1.0,847.0,0.0,1.0,8.0,2.0
847,0.4080463679939549,-0.4894421904510968,1.0,0.0,0.0,0.0,0.0,1.0,848.0,0.0,1.0,0.0,0.0
848,-0.12270323147614676,0.016023023618325298,0.0,0.0,1.0,0.0,1.0,0.0,849.0,0.0,1.0,0.0,1.0
849,0.19574652820591446,1.145663540471827,1.0,0.0,0.0,1.0,0.0,0.0,850.0,1.0,0.0,1.0,0.0
850,-1.9424161439450667,-0.01870931177853076,0.0,0.0,1.0,0.0,0.0,1.0,851.0,0.0,1.0,4.0,2.0
851,3.36507985075595,-0.4918744606632361,0.0,0.0,1.0,0.0,0.0,1.0,852.0,0.0,1.0,0.0,0.0
852,-1.5633092871807084,-0.3414522396297103,1.0,0.0,0.0,0.0,0.0,1.0,853.0,0.0,0.0,1.0,1.0
853,-1.0325596877106067,0.14488502161245778,0.0,0.0,1.0,1.0,0.0,0.0,854.0,1.0,0.0,0.0,1.0
854,1.0904387101697999,-0.12491978668775715,0.0,0.0,1.0,0.0,1.0,0.0,855.0,0.0,0.0,1.0,0.0
855,-0.8809169450048634,-0.4601623283443675,0.0,0.0,1.0,0.0,0.0,1.0,856.0,1.0,0.0,0.0,1.0
856,1.1662600815226716,2.671117778445337,0.0,0.0,1.0,1.0,0.0,0.0,857.0,1.0,0.0,1.0,1.0
857,1.6211883096399016,-0.11384570873513637,0.0,0.0,1.0,1.0,0.0,0.0,858.0,1.0,1.0,0.0,0.0
858,-0.4259887168876334,-0.26066180729354516,1.0,0.0,0.0,0.0,0.0,1.0,859.0,1.0,0.0,0.0,3.0
859,-0.31604772842596957,-0.5028639729296732,1.0,0.0,0.0,0.0,0.0,1.0,860.0,0.0,1.0,0.0,0.0
860,0.8629745961111849,-0.36435544630444866,0.0,0.0,1.0,0.0,0.0,1.0,861.0,0.0,1.0,2.0,0.0
861,-0.6534528309462484,-0.41687275089321363,0.0,0.0,1.0,0.0,1.0,0.0,862.0,0.0,1.0,1.0,0.0
862,1.3937241955812865,-0.1263453225405672,0.0,0.0,1.0,1.0,0.0,0.0,863.0,1.0,0.0,0.0,0.0
863,0.07443233404131967,0.7519458402879414,0.0,0.0,1.0,0.0,0.0,1.0,864.0,0.0,0.0,8.0,2.0
864,-0.4259887168876334,-0.3866707201133388,0.0,0.0,1.0,0.0,1.0,0.0,865.0,0.0,1.0,0.0,0.0
865,0.9387959674640565,-0.3866707201133388,0.0,0.0,1.0,0.0,1.0,0.0,866.0,1.0,0.0,0.0,0.0
866,-0.1985246028290184,-0.3693891181010945,1.0,0.0,0.0,0.0,1.0,0.0,867.0,1.0,0.0,1.0,0.0
867,0.10476088258246824,0.3682954836973478,0.0,0.0,1.0,1.0,0.0,0.0,868.0,0.0,1.0,0.0,0.0
868,-0.1454496428820083,-0.45714212526638004,0.0,0.0,1.0,0.0,0.0,1.0,869.0,0.0,1.0,0.0,0.0
869,-1.9424161439450667,-0.4242561406845337,0.0,0.0,1.0,0.0,0.0,1.0,870.0,1.0,1.0,1.0,1.0
870,-0.27434597418189005,-0.4894421904510968,0.0,0.0,1.0,0.0,0.0,1.0,871.0,0.0,1.0,0.0,0.0
871,1.3179028242284148,0.40974072380221066,0.0,0.0,1.0,1.0,0.0,0.0,872.0,1.0,0.0,1.0,1.0
872,0.25640362528821153,-0.5477482176060045,0.0,0.0,1.0,1.0,0.0,0.0,873.0,0.0,1.0,0.0,0.0
873,1.3179028242284148,-0.46720946885967163,0.0,0.0,1.0,0.0,0.0,1.0,874.0,0.0,1.0,0.0,0.0
874,-0.12270323147614676,-0.16518916106092355,1.0,0.0,0.0,0.0,1.0,0.0,875.0,1.0,0.0,1.0,0.0
875,-1.1083810590634784,-0.5029485386158568,1.0,0.0,0.0,0.0,0.0,1.0,876.0,1.0,0.0,0.0,0.0
876,-0.7292742022991201,-0.45017955043725955,0.0,0.0,1.0,0.0,0.0,1.0,877.0,0.0,1.0,0.0,0.0
877,-0.8050955736519917,-0.4894421904510968,0.0,0.0,1.0,0.0,0.0,1.0,878.0,0.0,1.0,0.0,0.0
878,-0.22885315137016696,-0.4894421904510968,0.0,0.0,1.0,0.0,0.0,1.0,879.0,0.0,1.0,0.0,0.0
879,2.0002951664042596,1.0259447039291216,1.0,0.0,0.0,1.0,0.0,0.0,880.0,1.0,0.0,0.0,1.0
880,-0.35016734553476175,-0.12491978668775715,0.0,0.0,1.0,0.0,1.0,0.0,881.0,1.0,0.0,0.0,1.0
881,0.25640362528821153,-0.4894421904510968,0.0,0.0,1.0,0.0,0.0,1.0,882.0,0.0,1.0,0.0,0.0
882,-0.5776314595933767,-0.4366711888037809,0.0,0.0,1.0,0.0,0.0,1.0,883.0,0.0,0.0,0.0,0.0
883,-0.12270323147614676,-0.43700743807979686,0.0,0.0,1.0,0.0,1.0,0.0,884.0,0.0,1.0,0.0,0.0
884,-0.35016734553476175,-0.5064721088735089,0.0,0.0,1.0,0.0,0.0,1.0,885.0,0.0,1.0,0.0,0.0
885,0.7113318534054416,-0.06199888922968463,0.0,1.0,0.0,0.0,0.0,1.0,886.0,0.0,0.0,0.0,5.0
886,-0.1985246028290184,-0.3866707201133388,0.0,0.0,1.0,0.0,1.0,0.0,887.0,0.0,1.0,0.0,0.0
887,-0.8050955736519917,-0.04438103794142432,0.0,0.0,1.0,1.0,0.0,0.0,888.0,1.0,0.0,0.0,0.0
888,0.006193099823735021,-0.17626323901354432,0.0,0.0,1.0,0.0,0.0,1.0,889.0,0.0,0.0,1.0,2.0
889,-0.27434597418189005,-0.04438103794142432,1.0,0.0,0.0,1.0,0.0,0.0,890.0,1.0,1.0,0.0,0.0
890,0.1805822539353399,-0.49237782784290063,0.0,1.0,0.0,0.0,0.0,1.0,891.0,0.0,1.0,0.0,0.0
